{"failedCount":1,"prefixedPath":"src\/test\/java\/examples\/users\/FirstTest\/Get.feature","packageQualifiedName":"src.test.java.examples.users.FirstTest.Get","loopIndex":-1,"relativePath":"src\/test\/java\/examples\/users\/FirstTest\/Get.feature","scenarioResults":[{"sectionIndex":0,"stepResults":[{"result":{"nanos":1368000,"millis":1.368,"status":"passed"},"step":{"background":true,"line":3,"prefix":"*","index":0,"text":"url 'https:\/\/reqres.in\/api'"},"stepLog":"22:18:32.878 karate.env system property was: null \n"},{"result":{"nanos":841100,"millis":0.8411,"status":"passed"},"step":{"background":true,"line":4,"prefix":"*","index":1,"text":"header Accept = 'application\/json'"}},{"result":{"nanos":857200,"millis":0.8572,"status":"passed"},"step":{"comments":["#Given url 'https:\/\/reqres.in\/api\/users?page=2'"],"line":10,"prefix":"Given","index":0,"text":"url 'https:\/\/reqres.in\/api\/users\/2'"}},{"result":{"nanos":1696003000,"millis":1696.003,"status":"passed"},"step":{"line":11,"prefix":"When","index":1,"text":"method GET"},"stepLog":"22:18:33.893 request:\n1 > GET https:\/\/reqres.in\/api\/users\/2\n1 > Accept: application\/json\n1 > Host: reqres.in\n1 > Connection: Keep-Alive\n1 > User-Agent: Apache-HttpClient\/4.5.13 (Java\/1.8.0_202)\n1 > Accept-Encoding: gzip,deflate\n\n\n22:18:34.570 response time in milliseconds: 669\n1 < 200\n1 < Date: Sun, 13 Mar 2022 19:18:31 GMT\n1 < Content-Type: application\/json; charset=utf-8\n1 < Transfer-Encoding: chunked\n1 < Connection: keep-alive\n1 < X-Powered-By: Express\n1 < Access-Control-Allow-Origin: *\n1 < Etag: W\/\"118-pbdwwFo9SKNhD3Lx5iHJyngpq00\"\n1 < Via: 1.1 vegur\n1 < Cache-Control: max-age=14400\n1 < CF-Cache-Status: HIT\n1 < Age: 437\n1 < Expect-CT: max-age=604800, report-uri=\"https:\/\/report-uri.cloudflare.com\/cdn-cgi\/beacon\/expect-ct\"\n1 < Report-To: {\"endpoints\":[{\"url\":\"https:\\\/\\\/a.nel.cloudflare.com\\\/report\\\/v3?s=REDQhUwSkwBi%2FYxl5TuEQGebZKFcEuW9QOTQyVn%2FTghhFVfMBeeedHsGPlfwcS2qMtMqUDki6iL2DKDy8YNo4ikS7mew86GRqBOvNyOIj47V47iq45okNXu3Qno%3D\"}],\"group\":\"cf-nel\",\"max_age\":604800}\n1 < NEL: {\"success_fraction\":0,\"report_to\":\"cf-nel\",\"max_age\":604800}\n1 < Vary: Accept-Encoding\n1 < Server: cloudflare\n1 < CF-RAY: 6eb71db11ac3375c-MXP\n1 < alt-svc: h3=\":443\"; ma=86400, h3-29=\":443\"; ma=86400\n{\"data\":{\"id\":2,\"email\":\"janet.weaver@reqres.in\",\"first_name\":\"Janet\",\"last_name\":\"Weaver\",\"avatar\":\"https:\/\/reqres.in\/img\/faces\/2-image.jpg\"},\"support\":{\"url\":\"https:\/\/reqres.in\/#support-heading\",\"text\":\"To keep ReqRes free, contributions towards server costs are appreciated!\"}}\n"},{"result":{"nanos":12600,"millis":0.0126,"status":"passed"},"step":{"line":12,"prefix":"Then","index":2,"text":"status 200"}},{"result":{"nanos":7671600,"millis":7.6716,"status":"passed"},"step":{"line":13,"prefix":"And","index":3,"text":"print response"},"stepLog":"22:18:34.657 [print] {\n  \"data\": {\n    \"id\": 2,\n    \"email\": \"janet.weaver@reqres.in\",\n    \"first_name\": \"Janet\",\n    \"last_name\": \"Weaver\",\n    \"avatar\": \"https:\/\/reqres.in\/img\/faces\/2-image.jpg\"\n  },\n  \"support\": {\n    \"url\": \"https:\/\/reqres.in\/#support-heading\",\n    \"text\": \"To keep ReqRes free, contributions towards server costs are appreciated!\"\n  }\n}\n \n"},{"result":{"nanos":1196900,"millis":1.1969,"status":"passed"},"step":{"line":14,"prefix":"And","index":4,"text":"print responseStatus"},"stepLog":"22:18:34.660 [print] 200 \n"},{"result":{"nanos":1969400,"millis":1.9694,"status":"passed"},"step":{"line":15,"prefix":"And","index":5,"text":"print responseTime"},"stepLog":"22:18:34.661 [print] 669 \n"},{"result":{"nanos":2755900,"millis":2.7559,"status":"passed"},"step":{"line":16,"prefix":"And","index":6,"text":"print responseHeaders"},"stepLog":"22:18:34.665 [print] {\n  \"Date\": [\n    \"Sun, 13 Mar 2022 19:18:31 GMT\"\n  ],\n  \"Content-Type\": [\n    \"application\/json; charset=utf-8\"\n  ],\n  \"Transfer-Encoding\": [\n    \"chunked\"\n  ],\n  \"Connection\": [\n    \"keep-alive\"\n  ],\n  \"X-Powered-By\": [\n    \"Express\"\n  ],\n  \"Access-Control-Allow-Origin\": [\n    \"*\"\n  ],\n  \"Etag\": [\n    \"W\/\\\"118-pbdwwFo9SKNhD3Lx5iHJyngpq00\\\"\"\n  ],\n  \"Via\": [\n    \"1.1 vegur\"\n  ],\n  \"Cache-Control\": [\n    \"max-age=14400\"\n  ],\n  \"CF-Cache-Status\": [\n    \"HIT\"\n  ],\n  \"Age\": [\n    \"437\"\n  ],\n  \"Expect-CT\": [\n    \"max-age=604800, report-uri=\\\"https:\/\/report-uri.cloudflare.com\/cdn-cgi\/beacon\/expect-ct\\\"\"\n  ],\n  \"Report-To\": [\n    \"{\\\"endpoints\\\":[{\\\"url\\\":\\\"https:\\\\\/\\\\\/a.nel.cloudflare.com\\\\\/report\\\\\/v3?s=REDQhUwSkwBi%2FYxl5TuEQGebZKFcEuW9QOTQyVn%2FTghhFVfMBeeedHsGPlfwcS2qMtMqUDki6iL2DKDy8YNo4ikS7mew86GRqBOvNyOIj47V47iq45okNXu3Qno%3D\\\"}],\\\"group\\\":\\\"cf-nel\\\",\\\"max_age\\\":604800}\"\n  ],\n  \"NEL\": [\n    \"{\\\"success_fraction\\\":0,\\\"report_to\\\":\\\"cf-nel\\\",\\\"max_age\\\":604800}\"\n  ],\n  \"Vary\": [\n    \"Accept-Encoding\"\n  ],\n  \"Server\": [\n    \"cloudflare\"\n  ],\n  \"CF-RAY\": [\n    \"6eb71db11ac3375c-MXP\"\n  ],\n  \"alt-svc\": [\n    \"h3=\\\":443\\\"; ma=86400, h3-29=\\\":443\\\"; ma=86400\"\n  ]\n}\n \n"},{"result":{"nanos":1032800,"millis":1.0328,"status":"passed"},"step":{"line":17,"prefix":"And","index":7,"text":"print responseCookies"},"stepLog":"22:18:34.665 [print] null \n"}],"executorName":"main","line":7,"name":"Get Demo 1","description":"","durationMillis":1713.7085,"startTime":1647199112373,"failed":false,"refId":"[1:7]","endTime":1647199114666,"exampleIndex":-1},{"sectionIndex":1,"stepResults":[{"result":{"nanos":680900,"millis":0.6809,"status":"passed"},"step":{"background":true,"line":3,"prefix":"*","index":0,"text":"url 'https:\/\/reqres.in\/api'"},"stepLog":"22:18:34.675 karate.env system property was: null \n"},{"result":{"nanos":2753600,"millis":2.7536,"status":"passed"},"step":{"background":true,"line":4,"prefix":"*","index":1,"text":"header Accept = 'application\/json'"}},{"result":{"nanos":1134400,"millis":1.1344,"status":"passed"},"step":{"line":22,"prefix":"Given","index":0,"text":"path '\/users?page=2'"}},{"result":{"nanos":401383100,"millis":401.3831,"status":"passed"},"step":{"line":23,"prefix":"When","index":1,"text":"method GET"},"stepLog":"22:18:34.682 request:\n1 > GET https:\/\/reqres.in\/api\/users%3Fpage=2\n1 > Accept: application\/json\n1 > Host: reqres.in\n1 > Connection: Keep-Alive\n1 > User-Agent: Apache-HttpClient\/4.5.13 (Java\/1.8.0_202)\n1 > Accept-Encoding: gzip,deflate\n\n\n22:18:35.075 response time in milliseconds: 391\n1 < 200\n1 < Date: Sun, 13 Mar 2022 19:18:32 GMT\n1 < Content-Type: application\/json; charset=utf-8\n1 < Transfer-Encoding: chunked\n1 < Connection: keep-alive\n1 < X-Powered-By: Express\n1 < Access-Control-Allow-Origin: *\n1 < Etag: W\/\"2c1-N6Rqerxquq2kgQhL51EiSg4x0R8\"\n1 < Via: 1.1 vegur\n1 < Cache-Control: max-age=14400\n1 < CF-Cache-Status: MISS\n1 < Expect-CT: max-age=604800, report-uri=\"https:\/\/report-uri.cloudflare.com\/cdn-cgi\/beacon\/expect-ct\"\n1 < Report-To: {\"endpoints\":[{\"url\":\"https:\\\/\\\/a.nel.cloudflare.com\\\/report\\\/v3?s=DI5b9OrZBPYh3kwI2rUUJ1gQL5VD%2Bzh6%2BaQheVPB9db3sx37IIGQir16Z9CZoK9%2Bti8PXDgliPP%2BtFA64AeC8DI%2BV%2F0RkwSnL2MMeRk4ZTHKfYwClchU1y35yrA%3D\"}],\"group\":\"cf-nel\",\"max_age\":604800}\n1 < NEL: {\"success_fraction\":0,\"report_to\":\"cf-nel\",\"max_age\":604800}\n1 < Vary: Accept-Encoding\n1 < Server: cloudflare\n1 < CF-RAY: 6eb71db40e5d92b9-FRA\n1 < alt-svc: h3=\":443\"; ma=86400, h3-29=\":443\"; ma=86400\n{\"page\":1,\"per_page\":6,\"total\":12,\"total_pages\":2,\"data\":[{\"id\":1,\"name\":\"cerulean\",\"year\":2000,\"color\":\"#98B2D1\",\"pantone_value\":\"15-4020\"},{\"id\":2,\"name\":\"fuchsia rose\",\"year\":2001,\"color\":\"#C74375\",\"pantone_value\":\"17-2031\"},{\"id\":3,\"name\":\"true red\",\"year\":2002,\"color\":\"#BF1932\",\"pantone_value\":\"19-1664\"},{\"id\":4,\"name\":\"aqua sky\",\"year\":2003,\"color\":\"#7BC4C4\",\"pantone_value\":\"14-4811\"},{\"id\":5,\"name\":\"tigerlily\",\"year\":2004,\"color\":\"#E2583E\",\"pantone_value\":\"17-1456\"},{\"id\":6,\"name\":\"blue turquoise\",\"year\":2005,\"color\":\"#53B0AE\",\"pantone_value\":\"15-5217\"}],\"support\":{\"url\":\"https:\/\/reqres.in\/#support-heading\",\"text\":\"To keep ReqRes free, contributions towards server costs are appreciated!\"}}\n"},{"result":{"nanos":26100,"millis":0.0261,"status":"passed"},"step":{"line":24,"prefix":"Then","index":2,"text":"status 200"}},{"result":{"nanos":2609400,"millis":2.6094,"status":"passed"},"step":{"line":25,"prefix":"And","index":3,"text":"print response"},"stepLog":"22:18:35.085 [print] {\n  \"page\": 1,\n  \"per_page\": 6,\n  \"total\": 12,\n  \"total_pages\": 2,\n  \"data\": [\n    {\n      \"id\": 1,\n      \"name\": \"cerulean\",\n      \"year\": 2000,\n      \"color\": \"#98B2D1\",\n      \"pantone_value\": \"15-4020\"\n    },\n    {\n      \"id\": 2,\n      \"name\": \"fuchsia rose\",\n      \"year\": 2001,\n      \"color\": \"#C74375\",\n      \"pantone_value\": \"17-2031\"\n    },\n    {\n      \"id\": 3,\n      \"name\": \"true red\",\n      \"year\": 2002,\n      \"color\": \"#BF1932\",\n      \"pantone_value\": \"19-1664\"\n    },\n    {\n      \"id\": 4,\n      \"name\": \"aqua sky\",\n      \"year\": 2003,\n      \"color\": \"#7BC4C4\",\n      \"pantone_value\": \"14-4811\"\n    },\n    {\n      \"id\": 5,\n      \"name\": \"tigerlily\",\n      \"year\": 2004,\n      \"color\": \"#E2583E\",\n      \"pantone_value\": \"17-1456\"\n    },\n    {\n      \"id\": 6,\n      \"name\": \"blue turquoise\",\n      \"year\": 2005,\n      \"color\": \"#53B0AE\",\n      \"pantone_value\": \"15-5217\"\n    }\n  ],\n  \"support\": {\n    \"url\": \"https:\/\/reqres.in\/#support-heading\",\n    \"text\": \"To keep ReqRes free, contributions towards server costs are appreciated!\"\n  }\n}\n \n"},{"result":{"nanos":2026300,"millis":2.0263,"status":"passed"},"step":{"line":26,"prefix":"And","index":4,"text":"print responseStatus"},"stepLog":"22:18:35.087 [print] 200 \n"},{"result":{"nanos":2048500,"millis":2.0485,"status":"passed"},"step":{"line":27,"prefix":"And","index":5,"text":"print responseTime"},"stepLog":"22:18:35.090 [print] 391 \n"},{"result":{"nanos":3456700,"millis":3.4567,"status":"passed"},"step":{"line":28,"prefix":"And","index":6,"text":"print responseHeaders"},"stepLog":"22:18:35.093 [print] {\n  \"Date\": [\n    \"Sun, 13 Mar 2022 19:18:32 GMT\"\n  ],\n  \"Content-Type\": [\n    \"application\/json; charset=utf-8\"\n  ],\n  \"Transfer-Encoding\": [\n    \"chunked\"\n  ],\n  \"Connection\": [\n    \"keep-alive\"\n  ],\n  \"X-Powered-By\": [\n    \"Express\"\n  ],\n  \"Access-Control-Allow-Origin\": [\n    \"*\"\n  ],\n  \"Etag\": [\n    \"W\/\\\"2c1-N6Rqerxquq2kgQhL51EiSg4x0R8\\\"\"\n  ],\n  \"Via\": [\n    \"1.1 vegur\"\n  ],\n  \"Cache-Control\": [\n    \"max-age=14400\"\n  ],\n  \"CF-Cache-Status\": [\n    \"MISS\"\n  ],\n  \"Expect-CT\": [\n    \"max-age=604800, report-uri=\\\"https:\/\/report-uri.cloudflare.com\/cdn-cgi\/beacon\/expect-ct\\\"\"\n  ],\n  \"Report-To\": [\n    \"{\\\"endpoints\\\":[{\\\"url\\\":\\\"https:\\\\\/\\\\\/a.nel.cloudflare.com\\\\\/report\\\\\/v3?s=DI5b9OrZBPYh3kwI2rUUJ1gQL5VD%2Bzh6%2BaQheVPB9db3sx37IIGQir16Z9CZoK9%2Bti8PXDgliPP%2BtFA64AeC8DI%2BV%2F0RkwSnL2MMeRk4ZTHKfYwClchU1y35yrA%3D\\\"}],\\\"group\\\":\\\"cf-nel\\\",\\\"max_age\\\":604800}\"\n  ],\n  \"NEL\": [\n    \"{\\\"success_fraction\\\":0,\\\"report_to\\\":\\\"cf-nel\\\",\\\"max_age\\\":604800}\"\n  ],\n  \"Vary\": [\n    \"Accept-Encoding\"\n  ],\n  \"Server\": [\n    \"cloudflare\"\n  ],\n  \"CF-RAY\": [\n    \"6eb71db40e5d92b9-FRA\"\n  ],\n  \"alt-svc\": [\n    \"h3=\\\":443\\\"; ma=86400, h3-29=\\\":443\\\"; ma=86400\"\n  ]\n}\n \n"},{"result":{"nanos":2507700,"millis":2.5077,"status":"passed"},"step":{"line":29,"prefix":"And","index":7,"text":"print responseCookies"},"stepLog":"22:18:35.095 [print] null \n"}],"executorName":"main","line":20,"name":"Get Demo 2","description":"","durationMillis":418.6267,"startTime":1647199114672,"failed":false,"refId":"[2:20]","endTime":1647199115096,"exampleIndex":-1},{"sectionIndex":2,"stepResults":[{"result":{"nanos":414400,"millis":0.4144,"status":"passed"},"step":{"background":true,"line":3,"prefix":"*","index":0,"text":"url 'https:\/\/reqres.in\/api'"},"stepLog":"22:18:35.114 karate.env system property was: null \n"},{"result":{"nanos":372600,"millis":0.3726,"status":"passed"},"step":{"background":true,"line":4,"prefix":"*","index":1,"text":"header Accept = 'application\/json'"}},{"result":{"nanos":192000,"millis":0.192,"status":"passed"},"step":{"line":34,"prefix":"Given","index":0,"text":"path '\/users?page=2'"}},{"result":{"nanos":5802200,"millis":5.8022,"status":"passed"},"step":{"line":35,"prefix":"And","index":1,"text":"param page = 2"}},{"result":{"nanos":415434100,"millis":415.4341,"status":"passed"},"step":{"line":36,"prefix":"When","index":2,"text":"method GET"},"stepLog":"22:18:35.126 request:\n1 > GET https:\/\/reqres.in\/api\/users%3Fpage=2?page=2\n1 > Accept: application\/json\n1 > Host: reqres.in\n1 > Connection: Keep-Alive\n1 > User-Agent: Apache-HttpClient\/4.5.13 (Java\/1.8.0_202)\n1 > Accept-Encoding: gzip,deflate\n\n\n22:18:35.537 response time in milliseconds: 411\n1 < 200\n1 < Date: Sun, 13 Mar 2022 19:18:32 GMT\n1 < Content-Type: application\/json; charset=utf-8\n1 < Transfer-Encoding: chunked\n1 < Connection: keep-alive\n1 < X-Powered-By: Express\n1 < Access-Control-Allow-Origin: *\n1 < Etag: W\/\"2c3-xEr0SjJUDYJR0qVFNJByQ5ZcdPc\"\n1 < Via: 1.1 vegur\n1 < Cache-Control: max-age=14400\n1 < CF-Cache-Status: MISS\n1 < Expect-CT: max-age=604800, report-uri=\"https:\/\/report-uri.cloudflare.com\/cdn-cgi\/beacon\/expect-ct\"\n1 < Report-To: {\"endpoints\":[{\"url\":\"https:\\\/\\\/a.nel.cloudflare.com\\\/report\\\/v3?s=TFAjlxMBayl6jzkavgN2d%2Fu4UWcpWPJvJMC6LyzPPqxiB0qtuikkSv4ZeIBP4tM5dozwAKrUqsnXkH242bkOaY7zMacmhEJ6ycOdx7Pws%2BQlfWsi7NM9Tj5TYwM%3D\"}],\"group\":\"cf-nel\",\"max_age\":604800}\n1 < NEL: {\"success_fraction\":0,\"report_to\":\"cf-nel\",\"max_age\":604800}\n1 < Vary: Accept-Encoding\n1 < Server: cloudflare\n1 < CF-RAY: 6eb71db6f8839013-FRA\n1 < alt-svc: h3=\":443\"; ma=86400, h3-29=\":443\"; ma=86400\n{\"page\":2,\"per_page\":6,\"total\":12,\"total_pages\":2,\"data\":[{\"id\":7,\"name\":\"sand dollar\",\"year\":2006,\"color\":\"#DECDBE\",\"pantone_value\":\"13-1106\"},{\"id\":8,\"name\":\"chili pepper\",\"year\":2007,\"color\":\"#9B1B30\",\"pantone_value\":\"19-1557\"},{\"id\":9,\"name\":\"blue iris\",\"year\":2008,\"color\":\"#5A5B9F\",\"pantone_value\":\"18-3943\"},{\"id\":10,\"name\":\"mimosa\",\"year\":2009,\"color\":\"#F0C05A\",\"pantone_value\":\"14-0848\"},{\"id\":11,\"name\":\"turquoise\",\"year\":2010,\"color\":\"#45B5AA\",\"pantone_value\":\"15-5519\"},{\"id\":12,\"name\":\"honeysuckle\",\"year\":2011,\"color\":\"#D94F70\",\"pantone_value\":\"18-2120\"}],\"support\":{\"url\":\"https:\/\/reqres.in\/#support-heading\",\"text\":\"To keep ReqRes free, contributions towards server costs are appreciated!\"}}\n"},{"result":{"nanos":5900,"millis":0.0059,"status":"passed"},"step":{"line":37,"prefix":"Then","index":3,"text":"status 200"}},{"result":{"nanos":542000,"millis":0.542,"status":"passed"},"step":{"line":38,"prefix":"And","index":4,"text":"print response"},"stepLog":"22:18:35.539 [print] {\n  \"page\": 2,\n  \"per_page\": 6,\n  \"total\": 12,\n  \"total_pages\": 2,\n  \"data\": [\n    {\n      \"id\": 7,\n      \"name\": \"sand dollar\",\n      \"year\": 2006,\n      \"color\": \"#DECDBE\",\n      \"pantone_value\": \"13-1106\"\n    },\n    {\n      \"id\": 8,\n      \"name\": \"chili pepper\",\n      \"year\": 2007,\n      \"color\": \"#9B1B30\",\n      \"pantone_value\": \"19-1557\"\n    },\n    {\n      \"id\": 9,\n      \"name\": \"blue iris\",\n      \"year\": 2008,\n      \"color\": \"#5A5B9F\",\n      \"pantone_value\": \"18-3943\"\n    },\n    {\n      \"id\": 10,\n      \"name\": \"mimosa\",\n      \"year\": 2009,\n      \"color\": \"#F0C05A\",\n      \"pantone_value\": \"14-0848\"\n    },\n    {\n      \"id\": 11,\n      \"name\": \"turquoise\",\n      \"year\": 2010,\n      \"color\": \"#45B5AA\",\n      \"pantone_value\": \"15-5519\"\n    },\n    {\n      \"id\": 12,\n      \"name\": \"honeysuckle\",\n      \"year\": 2011,\n      \"color\": \"#D94F70\",\n      \"pantone_value\": \"18-2120\"\n    }\n  ],\n  \"support\": {\n    \"url\": \"https:\/\/reqres.in\/#support-heading\",\n    \"text\": \"To keep ReqRes free, contributions towards server costs are appreciated!\"\n  }\n}\n \n"},{"result":{"nanos":280500,"millis":0.2805,"status":"passed"},"step":{"line":39,"prefix":"And","index":5,"text":"print responseStatus"},"stepLog":"22:18:35.539 [print] 200 \n"},{"result":{"nanos":207600,"millis":0.2076,"status":"passed"},"step":{"line":40,"prefix":"And","index":6,"text":"print responseTime"},"stepLog":"22:18:35.539 [print] 411 \n"},{"result":{"nanos":334900,"millis":0.3349,"status":"passed"},"step":{"line":41,"prefix":"And","index":7,"text":"print responseHeaders"},"stepLog":"22:18:35.539 [print] {\n  \"Date\": [\n    \"Sun, 13 Mar 2022 19:18:32 GMT\"\n  ],\n  \"Content-Type\": [\n    \"application\/json; charset=utf-8\"\n  ],\n  \"Transfer-Encoding\": [\n    \"chunked\"\n  ],\n  \"Connection\": [\n    \"keep-alive\"\n  ],\n  \"X-Powered-By\": [\n    \"Express\"\n  ],\n  \"Access-Control-Allow-Origin\": [\n    \"*\"\n  ],\n  \"Etag\": [\n    \"W\/\\\"2c3-xEr0SjJUDYJR0qVFNJByQ5ZcdPc\\\"\"\n  ],\n  \"Via\": [\n    \"1.1 vegur\"\n  ],\n  \"Cache-Control\": [\n    \"max-age=14400\"\n  ],\n  \"CF-Cache-Status\": [\n    \"MISS\"\n  ],\n  \"Expect-CT\": [\n    \"max-age=604800, report-uri=\\\"https:\/\/report-uri.cloudflare.com\/cdn-cgi\/beacon\/expect-ct\\\"\"\n  ],\n  \"Report-To\": [\n    \"{\\\"endpoints\\\":[{\\\"url\\\":\\\"https:\\\\\/\\\\\/a.nel.cloudflare.com\\\\\/report\\\\\/v3?s=TFAjlxMBayl6jzkavgN2d%2Fu4UWcpWPJvJMC6LyzPPqxiB0qtuikkSv4ZeIBP4tM5dozwAKrUqsnXkH242bkOaY7zMacmhEJ6ycOdx7Pws%2BQlfWsi7NM9Tj5TYwM%3D\\\"}],\\\"group\\\":\\\"cf-nel\\\",\\\"max_age\\\":604800}\"\n  ],\n  \"NEL\": [\n    \"{\\\"success_fraction\\\":0,\\\"report_to\\\":\\\"cf-nel\\\",\\\"max_age\\\":604800}\"\n  ],\n  \"Vary\": [\n    \"Accept-Encoding\"\n  ],\n  \"Server\": [\n    \"cloudflare\"\n  ],\n  \"CF-RAY\": [\n    \"6eb71db6f8839013-FRA\"\n  ],\n  \"alt-svc\": [\n    \"h3=\\\":443\\\"; ma=86400, h3-29=\\\":443\\\"; ma=86400\"\n  ]\n}\n \n"},{"result":{"nanos":205400,"millis":0.2054,"status":"passed"},"step":{"line":42,"prefix":"And","index":8,"text":"print responseCookies"},"stepLog":"22:18:35.539 [print] null \n"}],"executorName":"main","line":32,"name":"Get Demo 3","description":"","durationMillis":423.7916,"startTime":1647199115112,"failed":false,"refId":"[3:32]","endTime":1647199115539,"exampleIndex":-1},{"sectionIndex":3,"stepResults":[{"result":{"nanos":694600,"millis":0.6946,"status":"passed"},"step":{"background":true,"line":3,"prefix":"*","index":0,"text":"url 'https:\/\/reqres.in\/api'"},"stepLog":"22:18:35.544 karate.env system property was: null \n"},{"result":{"nanos":351300,"millis":0.3513,"status":"passed"},"step":{"background":true,"line":4,"prefix":"*","index":1,"text":"header Accept = 'application\/json'"}},{"result":{"nanos":159200,"millis":0.1592,"status":"passed"},"step":{"line":47,"prefix":"Given","index":0,"text":"path '\/users?page=2'"}},{"result":{"nanos":163800,"millis":0.1638,"status":"passed"},"step":{"line":48,"prefix":"And","index":1,"text":"param page = 2"}},{"result":{"nanos":360546800,"millis":360.5468,"status":"passed"},"step":{"line":49,"prefix":"When","index":2,"text":"method GET"},"stepLog":"22:18:35.548 request:\n1 > GET https:\/\/reqres.in\/api\/users%3Fpage=2?page=2\n1 > Accept: application\/json\n1 > Host: reqres.in\n1 > Connection: Keep-Alive\n1 > User-Agent: Apache-HttpClient\/4.5.13 (Java\/1.8.0_202)\n1 > Accept-Encoding: gzip,deflate\n\n\n22:18:35.903 response time in milliseconds: 355\n1 < 200\n1 < Date: Sun, 13 Mar 2022 19:18:33 GMT\n1 < Content-Type: application\/json; charset=utf-8\n1 < Transfer-Encoding: chunked\n1 < Connection: keep-alive\n1 < X-Powered-By: Express\n1 < Access-Control-Allow-Origin: *\n1 < Etag: W\/\"2c3-xEr0SjJUDYJR0qVFNJByQ5ZcdPc\"\n1 < Via: 1.1 vegur\n1 < Cache-Control: max-age=14400\n1 < CF-Cache-Status: HIT\n1 < Age: 20\n1 < Expect-CT: max-age=604800, report-uri=\"https:\/\/report-uri.cloudflare.com\/cdn-cgi\/beacon\/expect-ct\"\n1 < Report-To: {\"endpoints\":[{\"url\":\"https:\\\/\\\/a.nel.cloudflare.com\\\/report\\\/v3?s=JJzigD%2BbTTxbY%2FozGJZYon%2FkOFGi172uMwt8ekNMVejKdwj%2B7DxTXOKvMohyeL1%2BB7sOVRnRP46i%2F6tnLPEoebzFJ0UDjK3jUztGA0Y9XpVMf5kMuOteN7QqtUM%3D\"}],\"group\":\"cf-nel\",\"max_age\":604800}\n1 < NEL: {\"success_fraction\":0,\"report_to\":\"cf-nel\",\"max_age\":604800}\n1 < Vary: Accept-Encoding\n1 < Server: cloudflare\n1 < CF-RAY: 6eb71db99c1a924d-FRA\n1 < alt-svc: h3=\":443\"; ma=86400, h3-29=\":443\"; ma=86400\n{\"page\":2,\"per_page\":6,\"total\":12,\"total_pages\":2,\"data\":[{\"id\":7,\"name\":\"sand dollar\",\"year\":2006,\"color\":\"#DECDBE\",\"pantone_value\":\"13-1106\"},{\"id\":8,\"name\":\"chili pepper\",\"year\":2007,\"color\":\"#9B1B30\",\"pantone_value\":\"19-1557\"},{\"id\":9,\"name\":\"blue iris\",\"year\":2008,\"color\":\"#5A5B9F\",\"pantone_value\":\"18-3943\"},{\"id\":10,\"name\":\"mimosa\",\"year\":2009,\"color\":\"#F0C05A\",\"pantone_value\":\"14-0848\"},{\"id\":11,\"name\":\"turquoise\",\"year\":2010,\"color\":\"#45B5AA\",\"pantone_value\":\"15-5519\"},{\"id\":12,\"name\":\"honeysuckle\",\"year\":2011,\"color\":\"#D94F70\",\"pantone_value\":\"18-2120\"}],\"support\":{\"url\":\"https:\/\/reqres.in\/#support-heading\",\"text\":\"To keep ReqRes free, contributions towards server costs are appreciated!\"}}\n"},{"result":{"nanos":22700,"millis":0.0227,"status":"passed"},"step":{"line":50,"prefix":"Then","index":3,"text":"status 200"}},{"result":{"nanos":3961700,"millis":3.9617,"status":"passed"},"step":{"line":51,"prefix":"And","index":4,"text":"print response"},"stepLog":"22:18:35.911 [print] {\n  \"page\": 2,\n  \"per_page\": 6,\n  \"total\": 12,\n  \"total_pages\": 2,\n  \"data\": [\n    {\n      \"id\": 7,\n      \"name\": \"sand dollar\",\n      \"year\": 2006,\n      \"color\": \"#DECDBE\",\n      \"pantone_value\": \"13-1106\"\n    },\n    {\n      \"id\": 8,\n      \"name\": \"chili pepper\",\n      \"year\": 2007,\n      \"color\": \"#9B1B30\",\n      \"pantone_value\": \"19-1557\"\n    },\n    {\n      \"id\": 9,\n      \"name\": \"blue iris\",\n      \"year\": 2008,\n      \"color\": \"#5A5B9F\",\n      \"pantone_value\": \"18-3943\"\n    },\n    {\n      \"id\": 10,\n      \"name\": \"mimosa\",\n      \"year\": 2009,\n      \"color\": \"#F0C05A\",\n      \"pantone_value\": \"14-0848\"\n    },\n    {\n      \"id\": 11,\n      \"name\": \"turquoise\",\n      \"year\": 2010,\n      \"color\": \"#45B5AA\",\n      \"pantone_value\": \"15-5519\"\n    },\n    {\n      \"id\": 12,\n      \"name\": \"honeysuckle\",\n      \"year\": 2011,\n      \"color\": \"#D94F70\",\n      \"pantone_value\": \"18-2120\"\n    }\n  ],\n  \"support\": {\n    \"url\": \"https:\/\/reqres.in\/#support-heading\",\n    \"text\": \"To keep ReqRes free, contributions towards server costs are appreciated!\"\n  }\n}\n \n"},{"result":{"nanos":84783500,"errorMessage":"match failed: NOT_EQUALS\n  $ | actual path does not exist (STRING:NULL)\n  '#notpresent'\n  null\n\nsrc\/test\/java\/examples\/users\/FirstTest\/Get.feature:52","millis":84.7835,"status":"failed"},"step":{"line":52,"prefix":"And","index":5,"text":"match response.data[0].first_name != null"},"stepLog":"22:18:35.998 src\/test\/java\/examples\/users\/FirstTest\/Get.feature:52\nAnd match response.data[0].first_name != null\nmatch failed: NOT_EQUALS\n  $ | actual path does not exist (STRING:NULL)\n  '#notpresent'\n  null\n\nsrc\/test\/java\/examples\/users\/FirstTest\/Get.feature:52\n"},{"result":{"nanos":0,"millis":0.0,"status":"skipped"},"step":{"line":53,"prefix":"And","index":6,"text":"assert response.data.length == 6"}},{"result":{"nanos":0,"millis":0.0,"status":"skipped"},"step":{"line":54,"prefix":"And","index":7,"text":"match $.data[1].id == 8"}},{"result":{"nanos":0,"millis":0.0,"status":"skipped"},"step":{"line":55,"prefix":"And","index":8,"text":"match $.data[3].last_name == 'Fields'"}}],"line":45,"description":"","durationMillis":450.6836,"failed":true,"error":"match failed: NOT_EQUALS\n  $ | actual path does not exist (STRING:NULL)\n  '#notpresent'\n  null\n\nsrc\/test\/java\/examples\/users\/FirstTest\/Get.feature:52","executorName":"main","name":"Get Demo 3","startTime":1647199115542,"refId":"[4:45]","endTime":1647199115998,"exampleIndex":-1}],"callDepth":0,"name":"Get API Demo","description":"","resultDate":"2022-03-13 10:18:36 PM","durationMillis":3006.8104,"passedCount":3}