{"failedCount":1,"prefixedPath":"src\/test\/java\/examples\/users\/FirstTest\/Get.feature","packageQualifiedName":"src.test.java.examples.users.FirstTest.Get","loopIndex":-1,"relativePath":"src\/test\/java\/examples\/users\/FirstTest\/Get.feature","scenarioResults":[{"sectionIndex":0,"stepResults":[{"result":{"nanos":864400,"millis":0.8644,"status":"passed"},"step":{"background":true,"line":3,"prefix":"*","index":0,"text":"url 'https:\/\/reqres.in\/api'"},"stepLog":"22:18:13.819 karate.env system property was: null \n"},{"result":{"nanos":372000,"millis":0.372,"status":"passed"},"step":{"background":true,"line":4,"prefix":"*","index":1,"text":"header Accept = 'application\/json'"}},{"result":{"nanos":295800,"millis":0.2958,"status":"passed"},"step":{"comments":["#Given url 'https:\/\/reqres.in\/api\/users?page=2'"],"line":10,"prefix":"Given","index":0,"text":"url 'https:\/\/reqres.in\/api\/users\/2'"}},{"result":{"nanos":1485880600,"millis":1485.8806,"status":"passed"},"step":{"line":11,"prefix":"When","index":1,"text":"method GET"},"stepLog":"22:18:14.466 request:\n1 > GET https:\/\/reqres.in\/api\/users\/2\n1 > Accept: application\/json\n1 > Host: reqres.in\n1 > Connection: Keep-Alive\n1 > User-Agent: Apache-HttpClient\/4.5.13 (Java\/1.8.0_202)\n1 > Accept-Encoding: gzip,deflate\n\n\n22:18:15.278 response time in milliseconds: 803\n1 < 200\n1 < Date: Sun, 13 Mar 2022 19:18:12 GMT\n1 < Content-Type: application\/json; charset=utf-8\n1 < Transfer-Encoding: chunked\n1 < Connection: keep-alive\n1 < X-Powered-By: Express\n1 < Access-Control-Allow-Origin: *\n1 < Etag: W\/\"118-pbdwwFo9SKNhD3Lx5iHJyngpq00\"\n1 < Via: 1.1 vegur\n1 < Cache-Control: max-age=14400\n1 < CF-Cache-Status: HIT\n1 < Age: 2389\n1 < Expect-CT: max-age=604800, report-uri=\"https:\/\/report-uri.cloudflare.com\/cdn-cgi\/beacon\/expect-ct\"\n1 < Report-To: {\"endpoints\":[{\"url\":\"https:\\\/\\\/a.nel.cloudflare.com\\\/report\\\/v3?s=aSMixxHtw2DZdY1wnQReUWgCN%2Fch4z8b47q7g26SVLu0FBQP6IBzAmINlwaCcp%2BKZdWd%2BcY9Gpp63OyK6QjNI3rj4Sx5vqdXtU9hiS7Z6NeW8cwZCzE8Ls%2Bj42w%3D\"}],\"group\":\"cf-nel\",\"max_age\":604800}\n1 < NEL: {\"success_fraction\":0,\"report_to\":\"cf-nel\",\"max_age\":604800}\n1 < Vary: Accept-Encoding\n1 < Server: cloudflare\n1 < CF-RAY: 6eb71d37ae9a923b-FRA\n1 < alt-svc: h3=\":443\"; ma=86400, h3-29=\":443\"; ma=86400\n{\"data\":{\"id\":2,\"email\":\"janet.weaver@reqres.in\",\"first_name\":\"Janet\",\"last_name\":\"Weaver\",\"avatar\":\"https:\/\/reqres.in\/img\/faces\/2-image.jpg\"},\"support\":{\"url\":\"https:\/\/reqres.in\/#support-heading\",\"text\":\"To keep ReqRes free, contributions towards server costs are appreciated!\"}}\n"},{"result":{"nanos":14000,"millis":0.014,"status":"passed"},"step":{"line":12,"prefix":"Then","index":2,"text":"status 200"}},{"result":{"nanos":7062700,"millis":7.0627,"status":"passed"},"step":{"line":13,"prefix":"And","index":3,"text":"print response"},"stepLog":"22:18:15.350 [print] {\n  \"data\": {\n    \"id\": 2,\n    \"email\": \"janet.weaver@reqres.in\",\n    \"first_name\": \"Janet\",\n    \"last_name\": \"Weaver\",\n    \"avatar\": \"https:\/\/reqres.in\/img\/faces\/2-image.jpg\"\n  },\n  \"support\": {\n    \"url\": \"https:\/\/reqres.in\/#support-heading\",\n    \"text\": \"To keep ReqRes free, contributions towards server costs are appreciated!\"\n  }\n}\n \n"},{"result":{"nanos":1078000,"millis":1.078,"status":"passed"},"step":{"line":14,"prefix":"And","index":4,"text":"print responseStatus"},"stepLog":"22:18:15.350 [print] 200 \n"},{"result":{"nanos":688800,"millis":0.6888,"status":"passed"},"step":{"line":15,"prefix":"And","index":5,"text":"print responseTime"},"stepLog":"22:18:15.350 [print] 803 \n"},{"result":{"nanos":954200,"millis":0.9542,"status":"passed"},"step":{"line":16,"prefix":"And","index":6,"text":"print responseHeaders"},"stepLog":"22:18:15.355 [print] {\n  \"Date\": [\n    \"Sun, 13 Mar 2022 19:18:12 GMT\"\n  ],\n  \"Content-Type\": [\n    \"application\/json; charset=utf-8\"\n  ],\n  \"Transfer-Encoding\": [\n    \"chunked\"\n  ],\n  \"Connection\": [\n    \"keep-alive\"\n  ],\n  \"X-Powered-By\": [\n    \"Express\"\n  ],\n  \"Access-Control-Allow-Origin\": [\n    \"*\"\n  ],\n  \"Etag\": [\n    \"W\/\\\"118-pbdwwFo9SKNhD3Lx5iHJyngpq00\\\"\"\n  ],\n  \"Via\": [\n    \"1.1 vegur\"\n  ],\n  \"Cache-Control\": [\n    \"max-age=14400\"\n  ],\n  \"CF-Cache-Status\": [\n    \"HIT\"\n  ],\n  \"Age\": [\n    \"2389\"\n  ],\n  \"Expect-CT\": [\n    \"max-age=604800, report-uri=\\\"https:\/\/report-uri.cloudflare.com\/cdn-cgi\/beacon\/expect-ct\\\"\"\n  ],\n  \"Report-To\": [\n    \"{\\\"endpoints\\\":[{\\\"url\\\":\\\"https:\\\\\/\\\\\/a.nel.cloudflare.com\\\\\/report\\\\\/v3?s=aSMixxHtw2DZdY1wnQReUWgCN%2Fch4z8b47q7g26SVLu0FBQP6IBzAmINlwaCcp%2BKZdWd%2BcY9Gpp63OyK6QjNI3rj4Sx5vqdXtU9hiS7Z6NeW8cwZCzE8Ls%2Bj42w%3D\\\"}],\\\"group\\\":\\\"cf-nel\\\",\\\"max_age\\\":604800}\"\n  ],\n  \"NEL\": [\n    \"{\\\"success_fraction\\\":0,\\\"report_to\\\":\\\"cf-nel\\\",\\\"max_age\\\":604800}\"\n  ],\n  \"Vary\": [\n    \"Accept-Encoding\"\n  ],\n  \"Server\": [\n    \"cloudflare\"\n  ],\n  \"CF-RAY\": [\n    \"6eb71d37ae9a923b-FRA\"\n  ],\n  \"alt-svc\": [\n    \"h3=\\\":443\\\"; ma=86400, h3-29=\\\":443\\\"; ma=86400\"\n  ]\n}\n \n"},{"result":{"nanos":645800,"millis":0.6458,"status":"passed"},"step":{"line":17,"prefix":"And","index":7,"text":"print responseCookies"},"stepLog":"22:18:15.356 [print] null \n"}],"executorName":"main","line":7,"name":"Get Demo 1","description":"","durationMillis":1497.8563,"startTime":1647199093658,"failed":false,"refId":"[1:7]","endTime":1647199095356,"exampleIndex":-1},{"sectionIndex":1,"stepResults":[{"result":{"nanos":407500,"millis":0.4075,"status":"passed"},"step":{"background":true,"line":3,"prefix":"*","index":0,"text":"url 'https:\/\/reqres.in\/api'"},"stepLog":"22:18:15.360 karate.env system property was: null \n"},{"result":{"nanos":369400,"millis":0.3694,"status":"passed"},"step":{"background":true,"line":4,"prefix":"*","index":1,"text":"header Accept = 'application\/json'"}},{"result":{"nanos":263900,"millis":0.2639,"status":"passed"},"step":{"line":22,"prefix":"Given","index":0,"text":"path '\/users?page=2'"}},{"result":{"nanos":582374200,"millis":582.3742,"status":"passed"},"step":{"line":23,"prefix":"When","index":1,"text":"method GET"},"stepLog":"22:18:15.367 request:\n1 > GET https:\/\/reqres.in\/api\/users%3Fpage=2\n1 > Accept: application\/json\n1 > Host: reqres.in\n1 > Connection: Keep-Alive\n1 > User-Agent: Apache-HttpClient\/4.5.13 (Java\/1.8.0_202)\n1 > Accept-Encoding: gzip,deflate\n\n\n22:18:15.942 response time in milliseconds: 575\n1 < 200\n1 < Date: Sun, 13 Mar 2022 19:18:13 GMT\n1 < Content-Type: application\/json; charset=utf-8\n1 < Transfer-Encoding: chunked\n1 < Connection: keep-alive\n1 < X-Powered-By: Express\n1 < Access-Control-Allow-Origin: *\n1 < Etag: W\/\"2c1-N6Rqerxquq2kgQhL51EiSg4x0R8\"\n1 < Via: 1.1 vegur\n1 < Cache-Control: max-age=14400\n1 < CF-Cache-Status: MISS\n1 < Expect-CT: max-age=604800, report-uri=\"https:\/\/report-uri.cloudflare.com\/cdn-cgi\/beacon\/expect-ct\"\n1 < Report-To: {\"endpoints\":[{\"url\":\"https:\\\/\\\/a.nel.cloudflare.com\\\/report\\\/v3?s=rQWQKCSzukbk1uwwJjt2X4Z0VKIH4L%2FjO9KPJrQTOlsh%2FnBm8o%2FOSUwvbFooYFIp91jhNwTshWRjrpHP1xrjcw45Jgk6ljy3AYDzPAipv%2Fznsa5lrB%2B%2Bjv10Y54%3D\"}],\"group\":\"cf-nel\",\"max_age\":604800}\n1 < NEL: {\"success_fraction\":0,\"report_to\":\"cf-nel\",\"max_age\":604800}\n1 < Vary: Accept-Encoding\n1 < Server: cloudflare\n1 < CF-RAY: 6eb71d3b9cb09012-FRA\n1 < alt-svc: h3=\":443\"; ma=86400, h3-29=\":443\"; ma=86400\n{\"page\":1,\"per_page\":6,\"total\":12,\"total_pages\":2,\"data\":[{\"id\":1,\"name\":\"cerulean\",\"year\":2000,\"color\":\"#98B2D1\",\"pantone_value\":\"15-4020\"},{\"id\":2,\"name\":\"fuchsia rose\",\"year\":2001,\"color\":\"#C74375\",\"pantone_value\":\"17-2031\"},{\"id\":3,\"name\":\"true red\",\"year\":2002,\"color\":\"#BF1932\",\"pantone_value\":\"19-1664\"},{\"id\":4,\"name\":\"aqua sky\",\"year\":2003,\"color\":\"#7BC4C4\",\"pantone_value\":\"14-4811\"},{\"id\":5,\"name\":\"tigerlily\",\"year\":2004,\"color\":\"#E2583E\",\"pantone_value\":\"17-1456\"},{\"id\":6,\"name\":\"blue turquoise\",\"year\":2005,\"color\":\"#53B0AE\",\"pantone_value\":\"15-5217\"}],\"support\":{\"url\":\"https:\/\/reqres.in\/#support-heading\",\"text\":\"To keep ReqRes free, contributions towards server costs are appreciated!\"}}\n"},{"result":{"nanos":21900,"millis":0.0219,"status":"passed"},"step":{"line":24,"prefix":"Then","index":2,"text":"status 200"}},{"result":{"nanos":1895600,"millis":1.8956,"status":"passed"},"step":{"line":25,"prefix":"And","index":3,"text":"print response"},"stepLog":"22:18:15.950 [print] {\n  \"page\": 1,\n  \"per_page\": 6,\n  \"total\": 12,\n  \"total_pages\": 2,\n  \"data\": [\n    {\n      \"id\": 1,\n      \"name\": \"cerulean\",\n      \"year\": 2000,\n      \"color\": \"#98B2D1\",\n      \"pantone_value\": \"15-4020\"\n    },\n    {\n      \"id\": 2,\n      \"name\": \"fuchsia rose\",\n      \"year\": 2001,\n      \"color\": \"#C74375\",\n      \"pantone_value\": \"17-2031\"\n    },\n    {\n      \"id\": 3,\n      \"name\": \"true red\",\n      \"year\": 2002,\n      \"color\": \"#BF1932\",\n      \"pantone_value\": \"19-1664\"\n    },\n    {\n      \"id\": 4,\n      \"name\": \"aqua sky\",\n      \"year\": 2003,\n      \"color\": \"#7BC4C4\",\n      \"pantone_value\": \"14-4811\"\n    },\n    {\n      \"id\": 5,\n      \"name\": \"tigerlily\",\n      \"year\": 2004,\n      \"color\": \"#E2583E\",\n      \"pantone_value\": \"17-1456\"\n    },\n    {\n      \"id\": 6,\n      \"name\": \"blue turquoise\",\n      \"year\": 2005,\n      \"color\": \"#53B0AE\",\n      \"pantone_value\": \"15-5217\"\n    }\n  ],\n  \"support\": {\n    \"url\": \"https:\/\/reqres.in\/#support-heading\",\n    \"text\": \"To keep ReqRes free, contributions towards server costs are appreciated!\"\n  }\n}\n \n"},{"result":{"nanos":1061200,"millis":1.0612,"status":"passed"},"step":{"line":26,"prefix":"And","index":4,"text":"print responseStatus"},"stepLog":"22:18:15.951 [print] 200 \n"},{"result":{"nanos":973600,"millis":0.9736,"status":"passed"},"step":{"line":27,"prefix":"And","index":5,"text":"print responseTime"},"stepLog":"22:18:15.952 [print] 575 \n"},{"result":{"nanos":1503100,"millis":1.5031,"status":"passed"},"step":{"line":28,"prefix":"And","index":6,"text":"print responseHeaders"},"stepLog":"22:18:15.954 [print] {\n  \"Date\": [\n    \"Sun, 13 Mar 2022 19:18:13 GMT\"\n  ],\n  \"Content-Type\": [\n    \"application\/json; charset=utf-8\"\n  ],\n  \"Transfer-Encoding\": [\n    \"chunked\"\n  ],\n  \"Connection\": [\n    \"keep-alive\"\n  ],\n  \"X-Powered-By\": [\n    \"Express\"\n  ],\n  \"Access-Control-Allow-Origin\": [\n    \"*\"\n  ],\n  \"Etag\": [\n    \"W\/\\\"2c1-N6Rqerxquq2kgQhL51EiSg4x0R8\\\"\"\n  ],\n  \"Via\": [\n    \"1.1 vegur\"\n  ],\n  \"Cache-Control\": [\n    \"max-age=14400\"\n  ],\n  \"CF-Cache-Status\": [\n    \"MISS\"\n  ],\n  \"Expect-CT\": [\n    \"max-age=604800, report-uri=\\\"https:\/\/report-uri.cloudflare.com\/cdn-cgi\/beacon\/expect-ct\\\"\"\n  ],\n  \"Report-To\": [\n    \"{\\\"endpoints\\\":[{\\\"url\\\":\\\"https:\\\\\/\\\\\/a.nel.cloudflare.com\\\\\/report\\\\\/v3?s=rQWQKCSzukbk1uwwJjt2X4Z0VKIH4L%2FjO9KPJrQTOlsh%2FnBm8o%2FOSUwvbFooYFIp91jhNwTshWRjrpHP1xrjcw45Jgk6ljy3AYDzPAipv%2Fznsa5lrB%2B%2Bjv10Y54%3D\\\"}],\\\"group\\\":\\\"cf-nel\\\",\\\"max_age\\\":604800}\"\n  ],\n  \"NEL\": [\n    \"{\\\"success_fraction\\\":0,\\\"report_to\\\":\\\"cf-nel\\\",\\\"max_age\\\":604800}\"\n  ],\n  \"Vary\": [\n    \"Accept-Encoding\"\n  ],\n  \"Server\": [\n    \"cloudflare\"\n  ],\n  \"CF-RAY\": [\n    \"6eb71d3b9cb09012-FRA\"\n  ],\n  \"alt-svc\": [\n    \"h3=\\\":443\\\"; ma=86400, h3-29=\\\":443\\\"; ma=86400\"\n  ]\n}\n \n"},{"result":{"nanos":1002000,"millis":1.002,"status":"passed"},"step":{"line":29,"prefix":"And","index":7,"text":"print responseCookies"},"stepLog":"22:18:15.955 [print] null \n"}],"executorName":"main","line":20,"name":"Get Demo 2","description":"","durationMillis":589.8724,"startTime":1647199095360,"failed":false,"refId":"[2:20]","endTime":1647199095955,"exampleIndex":-1},{"sectionIndex":2,"stepResults":[{"result":{"nanos":506700,"millis":0.5067,"status":"passed"},"step":{"background":true,"line":3,"prefix":"*","index":0,"text":"url 'https:\/\/reqres.in\/api'"},"stepLog":"22:18:15.963 karate.env system property was: null \n"},{"result":{"nanos":437300,"millis":0.4373,"status":"passed"},"step":{"background":true,"line":4,"prefix":"*","index":1,"text":"header Accept = 'application\/json'"}},{"result":{"nanos":395900,"millis":0.3959,"status":"passed"},"step":{"line":34,"prefix":"Given","index":0,"text":"path '\/users?page=2'"}},{"result":{"nanos":3436900,"millis":3.4369,"status":"passed"},"step":{"line":35,"prefix":"And","index":1,"text":"param page = 2"}},{"result":{"nanos":491095700,"millis":491.0957,"status":"passed"},"step":{"line":36,"prefix":"When","index":2,"text":"method GET"},"stepLog":"22:18:15.978 request:\n1 > GET https:\/\/reqres.in\/api\/users%3Fpage=2?page=2\n1 > Accept: application\/json\n1 > Host: reqres.in\n1 > Connection: Keep-Alive\n1 > User-Agent: Apache-HttpClient\/4.5.13 (Java\/1.8.0_202)\n1 > Accept-Encoding: gzip,deflate\n\n\n22:18:16.463 response time in milliseconds: 485\n1 < 200\n1 < Date: Sun, 13 Mar 2022 19:18:13 GMT\n1 < Content-Type: application\/json; charset=utf-8\n1 < Transfer-Encoding: chunked\n1 < Connection: keep-alive\n1 < X-Powered-By: Express\n1 < Access-Control-Allow-Origin: *\n1 < Etag: W\/\"2c3-xEr0SjJUDYJR0qVFNJByQ5ZcdPc\"\n1 < Via: 1.1 vegur\n1 < Cache-Control: max-age=14400\n1 < CF-Cache-Status: MISS\n1 < Expect-CT: max-age=604800, report-uri=\"https:\/\/report-uri.cloudflare.com\/cdn-cgi\/beacon\/expect-ct\"\n1 < Report-To: {\"endpoints\":[{\"url\":\"https:\\\/\\\/a.nel.cloudflare.com\\\/report\\\/v3?s=gMRjwAB2ksIVuzL4pvpI6UFEcbG1N4PJ4pryqfw6HVJhTrCk44OM4SRFT8dnbovWKK4hYHLlA7iJ3rYgPqkVVs7mA8i4pMrs8xB9nbtCUgi6eY%2BN93L5ENe3hBs%3D\"}],\"group\":\"cf-nel\",\"max_age\":604800}\n1 < NEL: {\"success_fraction\":0,\"report_to\":\"cf-nel\",\"max_age\":604800}\n1 < Vary: Accept-Encoding\n1 < Server: cloudflare\n1 < CF-RAY: 6eb71d3f3c83924d-FRA\n1 < alt-svc: h3=\":443\"; ma=86400, h3-29=\":443\"; ma=86400\n{\"page\":2,\"per_page\":6,\"total\":12,\"total_pages\":2,\"data\":[{\"id\":7,\"name\":\"sand dollar\",\"year\":2006,\"color\":\"#DECDBE\",\"pantone_value\":\"13-1106\"},{\"id\":8,\"name\":\"chili pepper\",\"year\":2007,\"color\":\"#9B1B30\",\"pantone_value\":\"19-1557\"},{\"id\":9,\"name\":\"blue iris\",\"year\":2008,\"color\":\"#5A5B9F\",\"pantone_value\":\"18-3943\"},{\"id\":10,\"name\":\"mimosa\",\"year\":2009,\"color\":\"#F0C05A\",\"pantone_value\":\"14-0848\"},{\"id\":11,\"name\":\"turquoise\",\"year\":2010,\"color\":\"#45B5AA\",\"pantone_value\":\"15-5519\"},{\"id\":12,\"name\":\"honeysuckle\",\"year\":2011,\"color\":\"#D94F70\",\"pantone_value\":\"18-2120\"}],\"support\":{\"url\":\"https:\/\/reqres.in\/#support-heading\",\"text\":\"To keep ReqRes free, contributions towards server costs are appreciated!\"}}\n"},{"result":{"nanos":21800,"millis":0.0218,"status":"passed"},"step":{"line":37,"prefix":"Then","index":3,"text":"status 200"}},{"result":{"nanos":1696900,"millis":1.6969,"status":"passed"},"step":{"line":38,"prefix":"And","index":4,"text":"print response"},"stepLog":"22:18:16.463 [print] {\n  \"page\": 2,\n  \"per_page\": 6,\n  \"total\": 12,\n  \"total_pages\": 2,\n  \"data\": [\n    {\n      \"id\": 7,\n      \"name\": \"sand dollar\",\n      \"year\": 2006,\n      \"color\": \"#DECDBE\",\n      \"pantone_value\": \"13-1106\"\n    },\n    {\n      \"id\": 8,\n      \"name\": \"chili pepper\",\n      \"year\": 2007,\n      \"color\": \"#9B1B30\",\n      \"pantone_value\": \"19-1557\"\n    },\n    {\n      \"id\": 9,\n      \"name\": \"blue iris\",\n      \"year\": 2008,\n      \"color\": \"#5A5B9F\",\n      \"pantone_value\": \"18-3943\"\n    },\n    {\n      \"id\": 10,\n      \"name\": \"mimosa\",\n      \"year\": 2009,\n      \"color\": \"#F0C05A\",\n      \"pantone_value\": \"14-0848\"\n    },\n    {\n      \"id\": 11,\n      \"name\": \"turquoise\",\n      \"year\": 2010,\n      \"color\": \"#45B5AA\",\n      \"pantone_value\": \"15-5519\"\n    },\n    {\n      \"id\": 12,\n      \"name\": \"honeysuckle\",\n      \"year\": 2011,\n      \"color\": \"#D94F70\",\n      \"pantone_value\": \"18-2120\"\n    }\n  ],\n  \"support\": {\n    \"url\": \"https:\/\/reqres.in\/#support-heading\",\n    \"text\": \"To keep ReqRes free, contributions towards server costs are appreciated!\"\n  }\n}\n \n"},{"result":{"nanos":938500,"millis":0.9385,"status":"passed"},"step":{"line":39,"prefix":"And","index":5,"text":"print responseStatus"},"stepLog":"22:18:16.463 [print] 200 \n"},{"result":{"nanos":877300,"millis":0.8773,"status":"passed"},"step":{"line":40,"prefix":"And","index":6,"text":"print responseTime"},"stepLog":"22:18:16.463 [print] 485 \n"},{"result":{"nanos":1454600,"millis":1.4546,"status":"passed"},"step":{"line":41,"prefix":"And","index":7,"text":"print responseHeaders"},"stepLog":"22:18:16.471 [print] {\n  \"Date\": [\n    \"Sun, 13 Mar 2022 19:18:13 GMT\"\n  ],\n  \"Content-Type\": [\n    \"application\/json; charset=utf-8\"\n  ],\n  \"Transfer-Encoding\": [\n    \"chunked\"\n  ],\n  \"Connection\": [\n    \"keep-alive\"\n  ],\n  \"X-Powered-By\": [\n    \"Express\"\n  ],\n  \"Access-Control-Allow-Origin\": [\n    \"*\"\n  ],\n  \"Etag\": [\n    \"W\/\\\"2c3-xEr0SjJUDYJR0qVFNJByQ5ZcdPc\\\"\"\n  ],\n  \"Via\": [\n    \"1.1 vegur\"\n  ],\n  \"Cache-Control\": [\n    \"max-age=14400\"\n  ],\n  \"CF-Cache-Status\": [\n    \"MISS\"\n  ],\n  \"Expect-CT\": [\n    \"max-age=604800, report-uri=\\\"https:\/\/report-uri.cloudflare.com\/cdn-cgi\/beacon\/expect-ct\\\"\"\n  ],\n  \"Report-To\": [\n    \"{\\\"endpoints\\\":[{\\\"url\\\":\\\"https:\\\\\/\\\\\/a.nel.cloudflare.com\\\\\/report\\\\\/v3?s=gMRjwAB2ksIVuzL4pvpI6UFEcbG1N4PJ4pryqfw6HVJhTrCk44OM4SRFT8dnbovWKK4hYHLlA7iJ3rYgPqkVVs7mA8i4pMrs8xB9nbtCUgi6eY%2BN93L5ENe3hBs%3D\\\"}],\\\"group\\\":\\\"cf-nel\\\",\\\"max_age\\\":604800}\"\n  ],\n  \"NEL\": [\n    \"{\\\"success_fraction\\\":0,\\\"report_to\\\":\\\"cf-nel\\\",\\\"max_age\\\":604800}\"\n  ],\n  \"Vary\": [\n    \"Accept-Encoding\"\n  ],\n  \"Server\": [\n    \"cloudflare\"\n  ],\n  \"CF-RAY\": [\n    \"6eb71d3f3c83924d-FRA\"\n  ],\n  \"alt-svc\": [\n    \"h3=\\\":443\\\"; ma=86400, h3-29=\\\":443\\\"; ma=86400\"\n  ]\n}\n \n"},{"result":{"nanos":779100,"millis":0.7791,"status":"passed"},"step":{"line":42,"prefix":"And","index":8,"text":"print responseCookies"},"stepLog":"22:18:16.471 [print] null \n"}],"executorName":"main","line":32,"name":"Get Demo 3","description":"","durationMillis":501.6407,"startTime":1647199095963,"failed":false,"refId":"[3:32]","endTime":1647199096471,"exampleIndex":-1},{"sectionIndex":3,"stepResults":[{"result":{"nanos":515100,"millis":0.5151,"status":"passed"},"step":{"background":true,"line":3,"prefix":"*","index":0,"text":"url 'https:\/\/reqres.in\/api'"},"stepLog":"22:18:16.478 karate.env system property was: null \n"},{"result":{"nanos":464000,"millis":0.464,"status":"passed"},"step":{"background":true,"line":4,"prefix":"*","index":1,"text":"header Accept = 'application\/json'"}},{"result":{"nanos":251300,"millis":0.2513,"status":"passed"},"step":{"line":47,"prefix":"Given","index":0,"text":"path '\/users?page=2'"}},{"result":{"nanos":343500,"millis":0.3435,"status":"passed"},"step":{"line":48,"prefix":"And","index":1,"text":"param page = 2"}},{"result":{"nanos":252063300,"millis":252.0633,"status":"passed"},"step":{"line":49,"prefix":"When","index":2,"text":"method GET"},"stepLog":"22:18:16.489 request:\n1 > GET https:\/\/reqres.in\/api\/users%3Fpage=2?page=2\n1 > Accept: application\/json\n1 > Host: reqres.in\n1 > Connection: Keep-Alive\n1 > User-Agent: Apache-HttpClient\/4.5.13 (Java\/1.8.0_202)\n1 > Accept-Encoding: gzip,deflate\n\n\n22:18:16.735 response time in milliseconds: 246\n1 < 200\n1 < Date: Sun, 13 Mar 2022 19:18:14 GMT\n1 < Content-Type: application\/json; charset=utf-8\n1 < Transfer-Encoding: chunked\n1 < Connection: keep-alive\n1 < X-Powered-By: Express\n1 < Access-Control-Allow-Origin: *\n1 < Etag: W\/\"2c3-xEr0SjJUDYJR0qVFNJByQ5ZcdPc\"\n1 < Via: 1.1 vegur\n1 < Cache-Control: max-age=14400\n1 < CF-Cache-Status: HIT\n1 < Age: 1\n1 < Expect-CT: max-age=604800, report-uri=\"https:\/\/report-uri.cloudflare.com\/cdn-cgi\/beacon\/expect-ct\"\n1 < Report-To: {\"endpoints\":[{\"url\":\"https:\\\/\\\/a.nel.cloudflare.com\\\/report\\\/v3?s=dMl%2BJs1TVmchB228uYAxJnNkI%2Fc9ZlkXLnVrBpphA1tfrnBqAHT8xki4ODil%2FW%2FZQaZ3R%2B87NmsowVBVpKNWKAFmdXBb2Yj9Kr77fxzhzxjbmxKMq0GCL7iLOmM%3D\"}],\"group\":\"cf-nel\",\"max_age\":604800}\n1 < NEL: {\"success_fraction\":0,\"report_to\":\"cf-nel\",\"max_age\":604800}\n1 < Vary: Accept-Encoding\n1 < Server: cloudflare\n1 < CF-RAY: 6eb71d41bb1d925c-FRA\n1 < alt-svc: h3=\":443\"; ma=86400, h3-29=\":443\"; ma=86400\n{\"page\":2,\"per_page\":6,\"total\":12,\"total_pages\":2,\"data\":[{\"id\":7,\"name\":\"sand dollar\",\"year\":2006,\"color\":\"#DECDBE\",\"pantone_value\":\"13-1106\"},{\"id\":8,\"name\":\"chili pepper\",\"year\":2007,\"color\":\"#9B1B30\",\"pantone_value\":\"19-1557\"},{\"id\":9,\"name\":\"blue iris\",\"year\":2008,\"color\":\"#5A5B9F\",\"pantone_value\":\"18-3943\"},{\"id\":10,\"name\":\"mimosa\",\"year\":2009,\"color\":\"#F0C05A\",\"pantone_value\":\"14-0848\"},{\"id\":11,\"name\":\"turquoise\",\"year\":2010,\"color\":\"#45B5AA\",\"pantone_value\":\"15-5519\"},{\"id\":12,\"name\":\"honeysuckle\",\"year\":2011,\"color\":\"#D94F70\",\"pantone_value\":\"18-2120\"}],\"support\":{\"url\":\"https:\/\/reqres.in\/#support-heading\",\"text\":\"To keep ReqRes free, contributions towards server costs are appreciated!\"}}\n"},{"result":{"nanos":22000,"millis":0.022,"status":"passed"},"step":{"line":50,"prefix":"Then","index":3,"text":"status 200"}},{"result":{"nanos":2759800,"millis":2.7598,"status":"passed"},"step":{"line":51,"prefix":"And","index":4,"text":"print response"},"stepLog":"22:18:16.735 [print] {\n  \"page\": 2,\n  \"per_page\": 6,\n  \"total\": 12,\n  \"total_pages\": 2,\n  \"data\": [\n    {\n      \"id\": 7,\n      \"name\": \"sand dollar\",\n      \"year\": 2006,\n      \"color\": \"#DECDBE\",\n      \"pantone_value\": \"13-1106\"\n    },\n    {\n      \"id\": 8,\n      \"name\": \"chili pepper\",\n      \"year\": 2007,\n      \"color\": \"#9B1B30\",\n      \"pantone_value\": \"19-1557\"\n    },\n    {\n      \"id\": 9,\n      \"name\": \"blue iris\",\n      \"year\": 2008,\n      \"color\": \"#5A5B9F\",\n      \"pantone_value\": \"18-3943\"\n    },\n    {\n      \"id\": 10,\n      \"name\": \"mimosa\",\n      \"year\": 2009,\n      \"color\": \"#F0C05A\",\n      \"pantone_value\": \"14-0848\"\n    },\n    {\n      \"id\": 11,\n      \"name\": \"turquoise\",\n      \"year\": 2010,\n      \"color\": \"#45B5AA\",\n      \"pantone_value\": \"15-5519\"\n    },\n    {\n      \"id\": 12,\n      \"name\": \"honeysuckle\",\n      \"year\": 2011,\n      \"color\": \"#D94F70\",\n      \"pantone_value\": \"18-2120\"\n    }\n  ],\n  \"support\": {\n    \"url\": \"https:\/\/reqres.in\/#support-heading\",\n    \"text\": \"To keep ReqRes free, contributions towards server costs are appreciated!\"\n  }\n}\n \n"},{"result":{"nanos":72800900,"errorMessage":"match failed: NOT_EQUALS\n  $ | actual path does not exist (STRING:NULL)\n  '#notpresent'\n  null\n\nsrc\/test\/java\/examples\/users\/FirstTest\/Get.feature:52","millis":72.8009,"status":"failed"},"step":{"line":52,"prefix":"And","index":5,"text":"match response.data[0].first_name != null"},"stepLog":"22:18:16.816 src\/test\/java\/examples\/users\/FirstTest\/Get.feature:52\nAnd match response.data[0].first_name != null\nmatch failed: NOT_EQUALS\n  $ | actual path does not exist (STRING:NULL)\n  '#notpresent'\n  null\n\nsrc\/test\/java\/examples\/users\/FirstTest\/Get.feature:52\n"},{"result":{"nanos":0,"millis":0.0,"status":"skipped"},"step":{"line":53,"prefix":"And","index":6,"text":"assert response.data.length == 6"}},{"result":{"nanos":0,"millis":0.0,"status":"skipped"},"step":{"line":54,"prefix":"And","index":7,"text":"match $.data[1].id == 8"}},{"result":{"nanos":0,"millis":0.0,"status":"skipped"},"step":{"line":55,"prefix":"And","index":8,"text":"match $.data[3].last_name == 'Fields'"}}],"line":45,"description":"","durationMillis":329.2199,"failed":true,"error":"match failed: NOT_EQUALS\n  $ | actual path does not exist (STRING:NULL)\n  '#notpresent'\n  null\n\nsrc\/test\/java\/examples\/users\/FirstTest\/Get.feature:52","executorName":"main","name":"Get Demo 3","startTime":1647199096478,"refId":"[4:45]","endTime":1647199096816,"exampleIndex":-1}],"callDepth":0,"name":"Get API Demo","description":"","resultDate":"2022-03-13 10:18:16 PM","durationMillis":2918.5893,"passedCount":3}