{"failedCount":2,"prefixedPath":"src\/test\/java\/examples\/users\/FirstTest\/Get.feature","packageQualifiedName":"src.test.java.examples.users.FirstTest.Get","loopIndex":-1,"relativePath":"src\/test\/java\/examples\/users\/FirstTest\/Get.feature","scenarioResults":[{"sectionIndex":0,"stepResults":[{"result":{"nanos":794400,"millis":0.7944,"status":"passed"},"step":{"background":true,"line":3,"prefix":"*","index":0,"text":"url 'https:\/\/reqres.in\/api'"},"stepLog":"22:09:28.730 karate.env system property was: null \n"},{"result":{"nanos":445300,"millis":0.4453,"status":"passed"},"step":{"background":true,"line":4,"prefix":"*","index":1,"text":"header Accept = 'Application\/json'"}},{"result":{"nanos":722500,"millis":0.7225,"status":"passed"},"step":{"line":9,"prefix":"Given","index":0,"text":"url 'https:\/\/reqres.in\/api\/users?page=2'"}},{"result":{"nanos":1385838000,"millis":1385.838,"status":"passed"},"step":{"line":10,"prefix":"When","index":1,"text":"method GET"},"stepLog":"22:09:29.604 request:\n1 > GET https:\/\/reqres.in\/api\/users?page=2\n1 > Accept: Application\/json\n1 > Host: reqres.in\n1 > Connection: Keep-Alive\n1 > User-Agent: Apache-HttpClient\/4.5.13 (Java\/1.8.0_202)\n1 > Accept-Encoding: gzip,deflate\n\n\n22:09:30.104 response time in milliseconds: 491\n1 < 200\n1 < Date: Sun, 13 Mar 2022 19:09:27 GMT\n1 < Content-Type: application\/json; charset=utf-8\n1 < Transfer-Encoding: chunked\n1 < Connection: keep-alive\n1 < X-Powered-By: Express\n1 < Access-Control-Allow-Origin: *\n1 < Etag: W\/\"406-ut0vzoCuidvyMf8arZpMpJ6ZRDw\"\n1 < Via: 1.1 vegur\n1 < Cache-Control: max-age=14400\n1 < CF-Cache-Status: HIT\n1 < Age: 649\n1 < Expect-CT: max-age=604800, report-uri=\"https:\/\/report-uri.cloudflare.com\/cdn-cgi\/beacon\/expect-ct\"\n1 < Report-To: {\"endpoints\":[{\"url\":\"https:\\\/\\\/a.nel.cloudflare.com\\\/report\\\/v3?s=0E3TbYylmFpaMcP1B%2Fsx1Nb9hWgDKVKw8wQ6u8KndqO2uVaXzOjVYQl0rbS8XU2nrtW%2FecWGBMY%2BsZy8SMcQZqa5imI36DpjdJiLQMCobGOSH6q6J1FWkIvNXMk%3D\"}],\"group\":\"cf-nel\",\"max_age\":604800}\n1 < NEL: {\"success_fraction\":0,\"report_to\":\"cf-nel\",\"max_age\":604800}\n1 < Vary: Accept-Encoding\n1 < Server: cloudflare\n1 < CF-RAY: 6eb710660bcd0f7a-MXP\n1 < alt-svc: h3=\":443\"; ma=86400, h3-29=\":443\"; ma=86400\n{\"page\":2,\"per_page\":6,\"total\":12,\"total_pages\":2,\"data\":[{\"id\":7,\"email\":\"michael.lawson@reqres.in\",\"first_name\":\"Michael\",\"last_name\":\"Lawson\",\"avatar\":\"https:\/\/reqres.in\/img\/faces\/7-image.jpg\"},{\"id\":8,\"email\":\"lindsay.ferguson@reqres.in\",\"first_name\":\"Lindsay\",\"last_name\":\"Ferguson\",\"avatar\":\"https:\/\/reqres.in\/img\/faces\/8-image.jpg\"},{\"id\":9,\"email\":\"tobias.funke@reqres.in\",\"first_name\":\"Tobias\",\"last_name\":\"Funke\",\"avatar\":\"https:\/\/reqres.in\/img\/faces\/9-image.jpg\"},{\"id\":10,\"email\":\"byron.fields@reqres.in\",\"first_name\":\"Byron\",\"last_name\":\"Fields\",\"avatar\":\"https:\/\/reqres.in\/img\/faces\/10-image.jpg\"},{\"id\":11,\"email\":\"george.edwards@reqres.in\",\"first_name\":\"George\",\"last_name\":\"Edwards\",\"avatar\":\"https:\/\/reqres.in\/img\/faces\/11-image.jpg\"},{\"id\":12,\"email\":\"rachel.howell@reqres.in\",\"first_name\":\"Rachel\",\"last_name\":\"Howell\",\"avatar\":\"https:\/\/reqres.in\/img\/faces\/12-image.jpg\"}],\"support\":{\"url\":\"https:\/\/reqres.in\/#support-heading\",\"text\":\"To keep ReqRes free, contributions towards server costs are appreciated!\"}}\n"},{"result":{"nanos":10600,"millis":0.0106,"status":"passed"},"step":{"line":11,"prefix":"Then","index":2,"text":"status 200"}},{"result":{"nanos":5367100,"millis":5.3671,"status":"passed"},"step":{"line":12,"prefix":"And","index":3,"text":"print response"},"stepLog":"22:09:30.152 [print] {\n  \"page\": 2,\n  \"per_page\": 6,\n  \"total\": 12,\n  \"total_pages\": 2,\n  \"data\": [\n    {\n      \"id\": 7,\n      \"email\": \"michael.lawson@reqres.in\",\n      \"first_name\": \"Michael\",\n      \"last_name\": \"Lawson\",\n      \"avatar\": \"https:\/\/reqres.in\/img\/faces\/7-image.jpg\"\n    },\n    {\n      \"id\": 8,\n      \"email\": \"lindsay.ferguson@reqres.in\",\n      \"first_name\": \"Lindsay\",\n      \"last_name\": \"Ferguson\",\n      \"avatar\": \"https:\/\/reqres.in\/img\/faces\/8-image.jpg\"\n    },\n    {\n      \"id\": 9,\n      \"email\": \"tobias.funke@reqres.in\",\n      \"first_name\": \"Tobias\",\n      \"last_name\": \"Funke\",\n      \"avatar\": \"https:\/\/reqres.in\/img\/faces\/9-image.jpg\"\n    },\n    {\n      \"id\": 10,\n      \"email\": \"byron.fields@reqres.in\",\n      \"first_name\": \"Byron\",\n      \"last_name\": \"Fields\",\n      \"avatar\": \"https:\/\/reqres.in\/img\/faces\/10-image.jpg\"\n    },\n    {\n      \"id\": 11,\n      \"email\": \"george.edwards@reqres.in\",\n      \"first_name\": \"George\",\n      \"last_name\": \"Edwards\",\n      \"avatar\": \"https:\/\/reqres.in\/img\/faces\/11-image.jpg\"\n    },\n    {\n      \"id\": 12,\n      \"email\": \"rachel.howell@reqres.in\",\n      \"first_name\": \"Rachel\",\n      \"last_name\": \"Howell\",\n      \"avatar\": \"https:\/\/reqres.in\/img\/faces\/12-image.jpg\"\n    }\n  ],\n  \"support\": {\n    \"url\": \"https:\/\/reqres.in\/#support-heading\",\n    \"text\": \"To keep ReqRes free, contributions towards server costs are appreciated!\"\n  }\n}\n \n"},{"result":{"nanos":1171400,"millis":1.1714,"status":"passed"},"step":{"line":13,"prefix":"And","index":4,"text":"print responseStatus"},"stepLog":"22:09:30.159 [print] 200 \n"},{"result":{"nanos":710800,"millis":0.7108,"status":"passed"},"step":{"line":14,"prefix":"And","index":5,"text":"print responseTime"},"stepLog":"22:09:30.159 [print] 491 \n"},{"result":{"nanos":924600,"millis":0.9246,"status":"passed"},"step":{"line":15,"prefix":"And","index":6,"text":"print responseHeaders"},"stepLog":"22:09:30.161 [print] {\n  \"Date\": [\n    \"Sun, 13 Mar 2022 19:09:27 GMT\"\n  ],\n  \"Content-Type\": [\n    \"application\/json; charset=utf-8\"\n  ],\n  \"Transfer-Encoding\": [\n    \"chunked\"\n  ],\n  \"Connection\": [\n    \"keep-alive\"\n  ],\n  \"X-Powered-By\": [\n    \"Express\"\n  ],\n  \"Access-Control-Allow-Origin\": [\n    \"*\"\n  ],\n  \"Etag\": [\n    \"W\/\\\"406-ut0vzoCuidvyMf8arZpMpJ6ZRDw\\\"\"\n  ],\n  \"Via\": [\n    \"1.1 vegur\"\n  ],\n  \"Cache-Control\": [\n    \"max-age=14400\"\n  ],\n  \"CF-Cache-Status\": [\n    \"HIT\"\n  ],\n  \"Age\": [\n    \"649\"\n  ],\n  \"Expect-CT\": [\n    \"max-age=604800, report-uri=\\\"https:\/\/report-uri.cloudflare.com\/cdn-cgi\/beacon\/expect-ct\\\"\"\n  ],\n  \"Report-To\": [\n    \"{\\\"endpoints\\\":[{\\\"url\\\":\\\"https:\\\\\/\\\\\/a.nel.cloudflare.com\\\\\/report\\\\\/v3?s=0E3TbYylmFpaMcP1B%2Fsx1Nb9hWgDKVKw8wQ6u8KndqO2uVaXzOjVYQl0rbS8XU2nrtW%2FecWGBMY%2BsZy8SMcQZqa5imI36DpjdJiLQMCobGOSH6q6J1FWkIvNXMk%3D\\\"}],\\\"group\\\":\\\"cf-nel\\\",\\\"max_age\\\":604800}\"\n  ],\n  \"NEL\": [\n    \"{\\\"success_fraction\\\":0,\\\"report_to\\\":\\\"cf-nel\\\",\\\"max_age\\\":604800}\"\n  ],\n  \"Vary\": [\n    \"Accept-Encoding\"\n  ],\n  \"Server\": [\n    \"cloudflare\"\n  ],\n  \"CF-RAY\": [\n    \"6eb710660bcd0f7a-MXP\"\n  ],\n  \"alt-svc\": [\n    \"h3=\\\":443\\\"; ma=86400, h3-29=\\\":443\\\"; ma=86400\"\n  ]\n}\n \n"},{"result":{"nanos":36848200,"errorMessage":"js failed:\n>>>>\n01: karate.log('[print]',reponseCookies)\n<<<<\norg.graalvm.polyglot.PolyglotException: ReferenceError: \"reponseCookies\" is not defined\n- <js>.:program(Unnamed:1)\n\nsrc\/test\/java\/examples\/users\/FirstTest\/Get.feature:16","millis":36.8482,"status":"failed"},"step":{"line":16,"prefix":"And","index":7,"text":"print reponseCookies"},"stepLog":"22:09:30.194 src\/test\/java\/examples\/users\/FirstTest\/Get.feature:16\nAnd print reponseCookies\njs failed:\n>>>>\n01: karate.log('[print]',reponseCookies)\n<<<<\norg.graalvm.polyglot.PolyglotException: ReferenceError: \"reponseCookies\" is not defined\n- <js>.:program(Unnamed:1)\n\nsrc\/test\/java\/examples\/users\/FirstTest\/Get.feature:16\n"}],"line":7,"description":"","durationMillis":1432.8329,"failed":true,"error":"js failed:\n>>>>\n01: karate.log('[print]',reponseCookies)\n<<<<\norg.graalvm.polyglot.PolyglotException: ReferenceError: \"reponseCookies\" is not defined\n- <js>.:program(Unnamed:1)\n\nsrc\/test\/java\/examples\/users\/FirstTest\/Get.feature:16","executorName":"main","name":"Get Demo 1","startTime":1647198568573,"refId":"[1:7]","endTime":1647198570194,"exampleIndex":-1},{"sectionIndex":1,"stepResults":[{"result":{"nanos":915100,"millis":0.9151,"status":"passed"},"step":{"background":true,"line":3,"prefix":"*","index":0,"text":"url 'https:\/\/reqres.in\/api'"},"stepLog":"22:09:30.214 karate.env system property was: null \n"},{"result":{"nanos":688100,"millis":0.6881,"status":"passed"},"step":{"background":true,"line":4,"prefix":"*","index":1,"text":"header Accept = 'Application\/json'"}},{"result":{"nanos":569400,"millis":0.5694,"status":"passed"},"step":{"line":21,"prefix":"Given","index":0,"text":"path '\/api\/users?page=2'"}},{"result":{"nanos":432787500,"millis":432.7875,"status":"passed"},"step":{"line":22,"prefix":"When","index":1,"text":"method GET"},"stepLog":"22:09:30.218 request:\n1 > GET https:\/\/reqres.in\/api\/api\/users%3Fpage=2\n1 > Accept: Application\/json\n1 > Host: reqres.in\n1 > Connection: Keep-Alive\n1 > User-Agent: Apache-HttpClient\/4.5.13 (Java\/1.8.0_202)\n1 > Accept-Encoding: gzip,deflate\n\n\n22:09:30.648 response time in milliseconds: 430\n1 < 404\n1 < Date: Sun, 13 Mar 2022 19:09:27 GMT\n1 < Content-Type: application\/json; charset=utf-8\n1 < Content-Length: 2\n1 < Connection: keep-alive\n1 < X-Powered-By: Express\n1 < Access-Control-Allow-Origin: *\n1 < Etag: W\/\"2-vyGp6PvFo4RvsFtPoIWeCReyIC8\"\n1 < Via: 1.1 vegur\n1 < Cache-Control: max-age=14400\n1 < CF-Cache-Status: MISS\n1 < Expect-CT: max-age=604800, report-uri=\"https:\/\/report-uri.cloudflare.com\/cdn-cgi\/beacon\/expect-ct\"\n1 < Report-To: {\"endpoints\":[{\"url\":\"https:\\\/\\\/a.nel.cloudflare.com\\\/report\\\/v3?s=GxZu6N5E%2BAKjPk8YuDxd84p2EzH9RTeL7im132TaZadiv7VUIkH%2Fy2hTpToJoifZ7Ydm%2FzenLadcT5QbyhYXffUiB3PH75zIv%2F0sBPTzOAe3P55bCojsj8zNFRg%3D\"}],\"group\":\"cf-nel\",\"max_age\":604800}\n1 < NEL: {\"success_fraction\":0,\"report_to\":\"cf-nel\",\"max_age\":604800}\n1 < Vary: Accept-Encoding\n1 < Server: cloudflare\n1 < CF-RAY: 6eb710693dfd9019-FRA\n1 < alt-svc: h3=\":443\"; ma=86400, h3-29=\":443\"; ma=86400\n{}\n"},{"result":{"nanos":142500,"errorMessage":"status code was: 404, expected: 200, response time in milliseconds: 430, url: https:\/\/reqres.in\/api\/api\/users%3Fpage=2, response: \n{}\nsrc\/test\/java\/examples\/users\/FirstTest\/Get.feature:23","millis":0.1425,"status":"failed"},"step":{"line":23,"prefix":"Then","index":2,"text":"status 200"},"stepLog":"22:09:30.648 src\/test\/java\/examples\/users\/FirstTest\/Get.feature:23\nThen status 200\nstatus code was: 404, expected: 200, response time in milliseconds: 430, url: https:\/\/reqres.in\/api\/api\/users%3Fpage=2, response: \n{}\nsrc\/test\/java\/examples\/users\/FirstTest\/Get.feature:23\n"},{"result":{"nanos":0,"millis":0.0,"status":"skipped"},"step":{"line":24,"prefix":"And","index":3,"text":"print response"}},{"result":{"nanos":0,"millis":0.0,"status":"skipped"},"step":{"line":25,"prefix":"And","index":4,"text":"print responseStatus"}},{"result":{"nanos":0,"millis":0.0,"status":"skipped"},"step":{"line":26,"prefix":"And","index":5,"text":"print responseTime"}},{"result":{"nanos":0,"millis":0.0,"status":"skipped"},"step":{"line":27,"prefix":"And","index":6,"text":"print responseHeaders"}},{"result":{"nanos":0,"millis":0.0,"status":"skipped"},"step":{"line":28,"prefix":"And","index":7,"text":"print reponseCookies"}}],"line":19,"description":"","durationMillis":435.1026,"failed":true,"error":"status code was: 404, expected: 200, response time in milliseconds: 430, url: https:\/\/reqres.in\/api\/api\/users%3Fpage=2, response: \n{}\nsrc\/test\/java\/examples\/users\/FirstTest\/Get.feature:23","executorName":"main","name":"Get Demo 2","startTime":1647198570206,"refId":"[2:19]","endTime":1647198570648,"exampleIndex":-1}],"callDepth":0,"name":"Get API Demo","description":"","resultDate":"2022-03-13 10:09:30 PM","durationMillis":1867.9355,"passedCount":0}