{"failedCount":0,"prefixedPath":"src\/test\/java\/examples\/users\/FirstTest\/FirstTest.feature","packageQualifiedName":"src.test.java.examples.users.FirstTest.FirstTest","loopIndex":-1,"relativePath":"src\/test\/java\/examples\/users\/FirstTest\/FirstTest.feature","scenarioResults":[{"sectionIndex":0,"stepResults":[{"result":{"nanos":866600,"millis":0.8666,"status":"passed"},"step":{"line":5,"prefix":"Given","index":0,"text":"url 'https:\/\/reqres.in\/api\/users?page=2'"},"stepLog":"19:13:15.223 karate.env system property was: null \n"},{"result":{"nanos":1019305100,"millis":1019.3051,"status":"passed"},"step":{"line":6,"prefix":"When","index":1,"text":"method GET"},"stepLog":"19:13:15.721 request:\n1 > GET https:\/\/reqres.in\/api\/users?page=2\n1 > Host: reqres.in\n1 > Connection: Keep-Alive\n1 > User-Agent: Apache-HttpClient\/4.5.13 (Java\/1.8.0_202)\n1 > Accept-Encoding: gzip,deflate\n\n\n19:13:16.211 response time in milliseconds: 482\n1 < 200\n1 < Date: Sun, 13 Mar 2022 16:13:13 GMT\n1 < Content-Type: application\/json; charset=utf-8\n1 < Transfer-Encoding: chunked\n1 < Connection: keep-alive\n1 < X-Powered-By: Express\n1 < Access-Control-Allow-Origin: *\n1 < Etag: W\/\"406-ut0vzoCuidvyMf8arZpMpJ6ZRDw\"\n1 < Via: 1.1 vegur\n1 < Cache-Control: max-age=14400\n1 < CF-Cache-Status: HIT\n1 < Age: 4350\n1 < Expect-CT: max-age=604800, report-uri=\"https:\/\/report-uri.cloudflare.com\/cdn-cgi\/beacon\/expect-ct\"\n1 < Report-To: {\"endpoints\":[{\"url\":\"https:\\\/\\\/a.nel.cloudflare.com\\\/report\\\/v3?s=aJd5BfGGLHtSzHx3zK9VovTenWa3Nzyu7qPMirb6hWF9Mtq5y1Mj0kkhkNrgnV2DUzuhyn02Frj%2F2vGT2pBwpxwrPfLbm1ggl7nNLQv%2B9KEXLNtoumu25hYM%2Bao%3D\"}],\"group\":\"cf-nel\",\"max_age\":604800}\n1 < NEL: {\"success_fraction\":0,\"report_to\":\"cf-nel\",\"max_age\":604800}\n1 < Vary: Accept-Encoding\n1 < Server: cloudflare\n1 < CF-RAY: 6eb60e3d6c2991f9-FRA\n1 < alt-svc: h3=\":443\"; ma=86400, h3-29=\":443\"; ma=86400\n{\"page\":2,\"per_page\":6,\"total\":12,\"total_pages\":2,\"data\":[{\"id\":7,\"email\":\"michael.lawson@reqres.in\",\"first_name\":\"Michael\",\"last_name\":\"Lawson\",\"avatar\":\"https:\/\/reqres.in\/img\/faces\/7-image.jpg\"},{\"id\":8,\"email\":\"lindsay.ferguson@reqres.in\",\"first_name\":\"Lindsay\",\"last_name\":\"Ferguson\",\"avatar\":\"https:\/\/reqres.in\/img\/faces\/8-image.jpg\"},{\"id\":9,\"email\":\"tobias.funke@reqres.in\",\"first_name\":\"Tobias\",\"last_name\":\"Funke\",\"avatar\":\"https:\/\/reqres.in\/img\/faces\/9-image.jpg\"},{\"id\":10,\"email\":\"byron.fields@reqres.in\",\"first_name\":\"Byron\",\"last_name\":\"Fields\",\"avatar\":\"https:\/\/reqres.in\/img\/faces\/10-image.jpg\"},{\"id\":11,\"email\":\"george.edwards@reqres.in\",\"first_name\":\"George\",\"last_name\":\"Edwards\",\"avatar\":\"https:\/\/reqres.in\/img\/faces\/11-image.jpg\"},{\"id\":12,\"email\":\"rachel.howell@reqres.in\",\"first_name\":\"Rachel\",\"last_name\":\"Howell\",\"avatar\":\"https:\/\/reqres.in\/img\/faces\/12-image.jpg\"}],\"support\":{\"url\":\"https:\/\/reqres.in\/#support-heading\",\"text\":\"To keep ReqRes free, contributions towards server costs are appreciated!\"}}\n"},{"result":{"nanos":11200,"millis":0.0112,"status":"passed"},"step":{"line":7,"prefix":"Then","index":2,"text":"status 200"}}],"executorName":"main","line":3,"name":"Test a Sample Get API","description":"","durationMillis":1020.1829,"startTime":1647187995063,"failed":false,"refId":"[1:3]","endTime":1647187996272,"exampleIndex":-1}],"callDepth":0,"name":"Sample API Tests","description":"","resultDate":"2022-03-13 07:13:16 PM","durationMillis":1020.1829,"passedCount":1}