{"failedCount":0,"prefixedPath":"classpath:examples\/users\/FirstTest\/Get.feature","packageQualifiedName":"examples.users.FirstTest.Get","loopIndex":-1,"relativePath":"examples\/users\/FirstTest\/Get.feature","scenarioResults":[{"sectionIndex":0,"stepResults":[{"result":{"nanos":347000,"millis":0.347,"status":"passed"},"step":{"background":true,"line":3,"prefix":"*","index":0,"text":"url 'https:\/\/reqres.in\/api'"},"stepLog":"17:20:39.859 karate.env system property was: null \n"},{"result":{"nanos":463700,"millis":0.4637,"status":"passed"},"step":{"background":true,"line":4,"prefix":"*","index":1,"text":"header Accept = 'application\/json'"}},{"result":{"nanos":287600,"millis":0.2876,"status":"passed"},"step":{"comments":["#Given url 'https:\/\/reqres.in\/api\/users?page=2'"],"line":10,"prefix":"Given","index":0,"text":"url 'https:\/\/reqres.in\/api\/users\/2'"}},{"result":{"nanos":200385900,"millis":200.3859,"status":"passed"},"step":{"line":11,"prefix":"When","index":1,"text":"method GET"},"stepLog":"17:20:39.859 request:\n1 > GET https:\/\/reqres.in\/api\/users\/2\n1 > Accept: application\/json\n1 > Host: reqres.in\n1 > Connection: Keep-Alive\n1 > User-Agent: Apache-HttpClient\/4.5.13 (Java\/1.8.0_202)\n1 > Accept-Encoding: gzip,deflate\n\n\n17:20:40.062 response time in milliseconds: 203\n1 < 200\n1 < Date: Tue, 15 Mar 2022 14:20:40 GMT\n1 < Content-Type: application\/json; charset=utf-8\n1 < Transfer-Encoding: chunked\n1 < Connection: keep-alive\n1 < X-Powered-By: Express\n1 < Access-Control-Allow-Origin: *\n1 < Etag: W\/\"118-pbdwwFo9SKNhD3Lx5iHJyngpq00\"\n1 < Via: 1.1 vegur\n1 < Cache-Control: max-age=14400\n1 < CF-Cache-Status: HIT\n1 < Age: 3152\n1 < Expect-CT: max-age=604800, report-uri=\"https:\/\/report-uri.cloudflare.com\/cdn-cgi\/beacon\/expect-ct\"\n1 < Report-To: {\"endpoints\":[{\"url\":\"https:\\\/\\\/a.nel.cloudflare.com\\\/report\\\/v3?s=KEW%2BgFXw%2BcoB4ClWcWG9r7hXsecRn45u0%2Fh6dRHmgDotScsvf7Hp5p4GRSCXlVYKmTrIkUavGb%2FQN8VyYE2Q8BNRasajSVtz5pcVFju8zoDl%2Bd4jKPeg5qvaze8%3D\"}],\"group\":\"cf-nel\",\"max_age\":604800}\n1 < NEL: {\"success_fraction\":0,\"report_to\":\"cf-nel\",\"max_age\":604800}\n1 < Vary: Accept-Encoding\n1 < Server: cloudflare\n1 < CF-RAY: 6ec5e41f9d9b41cb-MRS\n1 < alt-svc: h3=\":443\"; ma=86400, h3-29=\":443\"; ma=86400\n{\"data\":{\"id\":2,\"email\":\"janet.weaver@reqres.in\",\"first_name\":\"Janet\",\"last_name\":\"Weaver\",\"avatar\":\"https:\/\/reqres.in\/img\/faces\/2-image.jpg\"},\"support\":{\"url\":\"https:\/\/reqres.in\/#support-heading\",\"text\":\"To keep ReqRes free, contributions towards server costs are appreciated!\"}}\n"},{"result":{"nanos":28100,"millis":0.0281,"status":"passed"},"step":{"line":12,"prefix":"Then","index":2,"text":"status 200"}},{"result":{"nanos":4885800,"millis":4.8858,"status":"passed"},"step":{"line":13,"prefix":"And","index":3,"text":"print response"},"stepLog":"17:20:40.062 [print] {\n  \"data\": {\n    \"id\": 2,\n    \"email\": \"janet.weaver@reqres.in\",\n    \"first_name\": \"Janet\",\n    \"last_name\": \"Weaver\",\n    \"avatar\": \"https:\/\/reqres.in\/img\/faces\/2-image.jpg\"\n  },\n  \"support\": {\n    \"url\": \"https:\/\/reqres.in\/#support-heading\",\n    \"text\": \"To keep ReqRes free, contributions towards server costs are appreciated!\"\n  }\n}\n \n"},{"result":{"nanos":3144000,"millis":3.144,"status":"passed"},"step":{"line":14,"prefix":"And","index":4,"text":"print responseStatus"},"stepLog":"17:20:40.077 [print] 200 \n"},{"result":{"nanos":2411600,"millis":2.4116,"status":"passed"},"step":{"line":15,"prefix":"And","index":5,"text":"print responseTime"},"stepLog":"17:20:40.077 [print] 203 \n"},{"result":{"nanos":3046600,"millis":3.0466,"status":"passed"},"step":{"line":16,"prefix":"And","index":6,"text":"print responseHeaders"},"stepLog":"17:20:40.077 [print] {\n  \"Date\": [\n    \"Tue, 15 Mar 2022 14:20:40 GMT\"\n  ],\n  \"Content-Type\": [\n    \"application\/json; charset=utf-8\"\n  ],\n  \"Transfer-Encoding\": [\n    \"chunked\"\n  ],\n  \"Connection\": [\n    \"keep-alive\"\n  ],\n  \"X-Powered-By\": [\n    \"Express\"\n  ],\n  \"Access-Control-Allow-Origin\": [\n    \"*\"\n  ],\n  \"Etag\": [\n    \"W\/\\\"118-pbdwwFo9SKNhD3Lx5iHJyngpq00\\\"\"\n  ],\n  \"Via\": [\n    \"1.1 vegur\"\n  ],\n  \"Cache-Control\": [\n    \"max-age=14400\"\n  ],\n  \"CF-Cache-Status\": [\n    \"HIT\"\n  ],\n  \"Age\": [\n    \"3152\"\n  ],\n  \"Expect-CT\": [\n    \"max-age=604800, report-uri=\\\"https:\/\/report-uri.cloudflare.com\/cdn-cgi\/beacon\/expect-ct\\\"\"\n  ],\n  \"Report-To\": [\n    \"{\\\"endpoints\\\":[{\\\"url\\\":\\\"https:\\\\\/\\\\\/a.nel.cloudflare.com\\\\\/report\\\\\/v3?s=KEW%2BgFXw%2BcoB4ClWcWG9r7hXsecRn45u0%2Fh6dRHmgDotScsvf7Hp5p4GRSCXlVYKmTrIkUavGb%2FQN8VyYE2Q8BNRasajSVtz5pcVFju8zoDl%2Bd4jKPeg5qvaze8%3D\\\"}],\\\"group\\\":\\\"cf-nel\\\",\\\"max_age\\\":604800}\"\n  ],\n  \"NEL\": [\n    \"{\\\"success_fraction\\\":0,\\\"report_to\\\":\\\"cf-nel\\\",\\\"max_age\\\":604800}\"\n  ],\n  \"Vary\": [\n    \"Accept-Encoding\"\n  ],\n  \"Server\": [\n    \"cloudflare\"\n  ],\n  \"CF-RAY\": [\n    \"6ec5e41f9d9b41cb-MRS\"\n  ],\n  \"alt-svc\": [\n    \"h3=\\\":443\\\"; ma=86400, h3-29=\\\":443\\\"; ma=86400\"\n  ]\n}\n \n"},{"result":{"nanos":2058500,"millis":2.0585,"status":"passed"},"step":{"line":17,"prefix":"And","index":7,"text":"print responseCookies"},"stepLog":"17:20:40.077 [print] null \n"}],"executorName":"main","line":7,"name":"Get Demo 1","description":"","durationMillis":217.0588,"startTime":1647354039859,"failed":false,"refId":"[1:7]","endTime":1647354040077,"exampleIndex":-1},{"sectionIndex":1,"stepResults":[{"result":{"nanos":190000,"millis":0.19,"status":"passed"},"step":{"background":true,"line":3,"prefix":"*","index":0,"text":"url 'https:\/\/reqres.in\/api'"},"stepLog":"17:20:40.093 karate.env system property was: null \n"},{"result":{"nanos":162100,"millis":0.1621,"status":"passed"},"step":{"background":true,"line":4,"prefix":"*","index":1,"text":"header Accept = 'application\/json'"}},{"result":{"nanos":485600,"millis":0.4856,"status":"passed"},"step":{"line":29,"prefix":"Given","index":0,"text":"path '\/users?page=2'"}},{"result":{"nanos":183477500,"millis":183.4775,"status":"passed"},"step":{"line":30,"prefix":"When","index":1,"text":"method GET"},"stepLog":"17:20:40.093 request:\n1 > GET https:\/\/reqres.in\/api\/users%3Fpage=2\n1 > Accept: application\/json\n1 > Host: reqres.in\n1 > Connection: Keep-Alive\n1 > User-Agent: Apache-HttpClient\/4.5.13 (Java\/1.8.0_202)\n1 > Accept-Encoding: gzip,deflate\n\n\n17:20:40.280 response time in milliseconds: 172\n1 < 200\n1 < Date: Tue, 15 Mar 2022 14:20:40 GMT\n1 < Content-Type: application\/json; charset=utf-8\n1 < Transfer-Encoding: chunked\n1 < Connection: keep-alive\n1 < X-Powered-By: Express\n1 < Access-Control-Allow-Origin: *\n1 < Etag: W\/\"2c1-N6Rqerxquq2kgQhL51EiSg4x0R8\"\n1 < Via: 1.1 vegur\n1 < Cache-Control: max-age=14400\n1 < CF-Cache-Status: HIT\n1 < Age: 5008\n1 < Expect-CT: max-age=604800, report-uri=\"https:\/\/report-uri.cloudflare.com\/cdn-cgi\/beacon\/expect-ct\"\n1 < Report-To: {\"endpoints\":[{\"url\":\"https:\\\/\\\/a.nel.cloudflare.com\\\/report\\\/v3?s=jR0dZ9go%2FmDBtHy9JeHxc5MKBCUKc%2FYhgi%2BfT60mdz2v%2FV1W5MzBbWlOnIhXn6PwZV9NKJPsIptY1pTMNfh2gTLzP9wKcpNHMsZvOApXZDSlLPUUnJYihmLhc1M%3D\"}],\"group\":\"cf-nel\",\"max_age\":604800}\n1 < NEL: {\"success_fraction\":0,\"report_to\":\"cf-nel\",\"max_age\":604800}\n1 < Vary: Accept-Encoding\n1 < Server: cloudflare\n1 < CF-RAY: 6ec5e420f8af7393-MRS\n1 < alt-svc: h3=\":443\"; ma=86400, h3-29=\":443\"; ma=86400\n{\"page\":1,\"per_page\":6,\"total\":12,\"total_pages\":2,\"data\":[{\"id\":1,\"name\":\"cerulean\",\"year\":2000,\"color\":\"#98B2D1\",\"pantone_value\":\"15-4020\"},{\"id\":2,\"name\":\"fuchsia rose\",\"year\":2001,\"color\":\"#C74375\",\"pantone_value\":\"17-2031\"},{\"id\":3,\"name\":\"true red\",\"year\":2002,\"color\":\"#BF1932\",\"pantone_value\":\"19-1664\"},{\"id\":4,\"name\":\"aqua sky\",\"year\":2003,\"color\":\"#7BC4C4\",\"pantone_value\":\"14-4811\"},{\"id\":5,\"name\":\"tigerlily\",\"year\":2004,\"color\":\"#E2583E\",\"pantone_value\":\"17-1456\"},{\"id\":6,\"name\":\"blue turquoise\",\"year\":2005,\"color\":\"#53B0AE\",\"pantone_value\":\"15-5217\"}],\"support\":{\"url\":\"https:\/\/reqres.in\/#support-heading\",\"text\":\"To keep ReqRes free, contributions towards server costs are appreciated!\"}}\n"},{"result":{"nanos":18000,"millis":0.018,"status":"passed"},"step":{"line":31,"prefix":"Then","index":2,"text":"status 200"}},{"result":{"nanos":1124400,"millis":1.1244,"status":"passed"},"step":{"line":32,"prefix":"And","index":3,"text":"print response"},"stepLog":"17:20:40.280 [print] {\n  \"page\": 1,\n  \"per_page\": 6,\n  \"total\": 12,\n  \"total_pages\": 2,\n  \"data\": [\n    {\n      \"id\": 1,\n      \"name\": \"cerulean\",\n      \"year\": 2000,\n      \"color\": \"#98B2D1\",\n      \"pantone_value\": \"15-4020\"\n    },\n    {\n      \"id\": 2,\n      \"name\": \"fuchsia rose\",\n      \"year\": 2001,\n      \"color\": \"#C74375\",\n      \"pantone_value\": \"17-2031\"\n    },\n    {\n      \"id\": 3,\n      \"name\": \"true red\",\n      \"year\": 2002,\n      \"color\": \"#BF1932\",\n      \"pantone_value\": \"19-1664\"\n    },\n    {\n      \"id\": 4,\n      \"name\": \"aqua sky\",\n      \"year\": 2003,\n      \"color\": \"#7BC4C4\",\n      \"pantone_value\": \"14-4811\"\n    },\n    {\n      \"id\": 5,\n      \"name\": \"tigerlily\",\n      \"year\": 2004,\n      \"color\": \"#E2583E\",\n      \"pantone_value\": \"17-1456\"\n    },\n    {\n      \"id\": 6,\n      \"name\": \"blue turquoise\",\n      \"year\": 2005,\n      \"color\": \"#53B0AE\",\n      \"pantone_value\": \"15-5217\"\n    }\n  ],\n  \"support\": {\n    \"url\": \"https:\/\/reqres.in\/#support-heading\",\n    \"text\": \"To keep ReqRes free, contributions towards server costs are appreciated!\"\n  }\n}\n \n"},{"result":{"nanos":533600,"millis":0.5336,"status":"passed"},"step":{"line":33,"prefix":"And","index":4,"text":"print responseStatus"},"stepLog":"17:20:40.280 [print] 200 \n"},{"result":{"nanos":439000,"millis":0.439,"status":"passed"},"step":{"line":34,"prefix":"And","index":5,"text":"print responseTime"},"stepLog":"17:20:40.280 [print] 172 \n"},{"result":{"nanos":1723000,"millis":1.723,"status":"passed"},"step":{"line":35,"prefix":"And","index":6,"text":"print responseHeaders"},"stepLog":"17:20:40.312 [print] {\n  \"Date\": [\n    \"Tue, 15 Mar 2022 14:20:40 GMT\"\n  ],\n  \"Content-Type\": [\n    \"application\/json; charset=utf-8\"\n  ],\n  \"Transfer-Encoding\": [\n    \"chunked\"\n  ],\n  \"Connection\": [\n    \"keep-alive\"\n  ],\n  \"X-Powered-By\": [\n    \"Express\"\n  ],\n  \"Access-Control-Allow-Origin\": [\n    \"*\"\n  ],\n  \"Etag\": [\n    \"W\/\\\"2c1-N6Rqerxquq2kgQhL51EiSg4x0R8\\\"\"\n  ],\n  \"Via\": [\n    \"1.1 vegur\"\n  ],\n  \"Cache-Control\": [\n    \"max-age=14400\"\n  ],\n  \"CF-Cache-Status\": [\n    \"HIT\"\n  ],\n  \"Age\": [\n    \"5008\"\n  ],\n  \"Expect-CT\": [\n    \"max-age=604800, report-uri=\\\"https:\/\/report-uri.cloudflare.com\/cdn-cgi\/beacon\/expect-ct\\\"\"\n  ],\n  \"Report-To\": [\n    \"{\\\"endpoints\\\":[{\\\"url\\\":\\\"https:\\\\\/\\\\\/a.nel.cloudflare.com\\\\\/report\\\\\/v3?s=jR0dZ9go%2FmDBtHy9JeHxc5MKBCUKc%2FYhgi%2BfT60mdz2v%2FV1W5MzBbWlOnIhXn6PwZV9NKJPsIptY1pTMNfh2gTLzP9wKcpNHMsZvOApXZDSlLPUUnJYihmLhc1M%3D\\\"}],\\\"group\\\":\\\"cf-nel\\\",\\\"max_age\\\":604800}\"\n  ],\n  \"NEL\": [\n    \"{\\\"success_fraction\\\":0,\\\"report_to\\\":\\\"cf-nel\\\",\\\"max_age\\\":604800}\"\n  ],\n  \"Vary\": [\n    \"Accept-Encoding\"\n  ],\n  \"Server\": [\n    \"cloudflare\"\n  ],\n  \"CF-RAY\": [\n    \"6ec5e420f8af7393-MRS\"\n  ],\n  \"alt-svc\": [\n    \"h3=\\\":443\\\"; ma=86400, h3-29=\\\":443\\\"; ma=86400\"\n  ]\n}\n \n"},{"result":{"nanos":926100,"millis":0.9261,"status":"passed"},"step":{"line":36,"prefix":"And","index":7,"text":"print responseCookies"},"stepLog":"17:20:40.312 [print] null \n"}],"executorName":"main","line":27,"name":"Get Demo 2","description":"","durationMillis":189.0793,"startTime":1647354040093,"failed":false,"refId":"[2:27]","endTime":1647354040312,"exampleIndex":-1},{"sectionIndex":2,"stepResults":[{"result":{"nanos":418300,"millis":0.4183,"status":"passed"},"step":{"background":true,"line":3,"prefix":"*","index":0,"text":"url 'https:\/\/reqres.in\/api'"},"stepLog":"17:20:40.312 karate.env system property was: null \n"},{"result":{"nanos":342200,"millis":0.3422,"status":"passed"},"step":{"background":true,"line":4,"prefix":"*","index":1,"text":"header Accept = 'application\/json'"}},{"result":{"nanos":67800,"millis":0.0678,"status":"passed"},"step":{"line":41,"prefix":"Given","index":0,"text":"path '\/users?page=2'"}},{"result":{"nanos":1152400,"millis":1.1524,"status":"passed"},"step":{"line":42,"prefix":"And","index":1,"text":"param page = 2"}},{"result":{"nanos":233559400,"millis":233.5594,"status":"passed"},"step":{"line":43,"prefix":"When","index":2,"text":"method GET"},"stepLog":"17:20:40.327 request:\n1 > GET https:\/\/reqres.in\/api\/users%3Fpage=2?page=2\n1 > Accept: application\/json\n1 > Host: reqres.in\n1 > Connection: Keep-Alive\n1 > User-Agent: Apache-HttpClient\/4.5.13 (Java\/1.8.0_202)\n1 > Accept-Encoding: gzip,deflate\n\n\n17:20:40.546 response time in milliseconds: 219\n1 < 200\n1 < Date: Tue, 15 Mar 2022 14:20:40 GMT\n1 < Content-Type: application\/json; charset=utf-8\n1 < Transfer-Encoding: chunked\n1 < Connection: keep-alive\n1 < X-Powered-By: Express\n1 < Access-Control-Allow-Origin: *\n1 < Etag: W\/\"2c3-xEr0SjJUDYJR0qVFNJByQ5ZcdPc\"\n1 < Via: 1.1 vegur\n1 < Cache-Control: max-age=14400\n1 < CF-Cache-Status: HIT\n1 < Age: 188\n1 < Expect-CT: max-age=604800, report-uri=\"https:\/\/report-uri.cloudflare.com\/cdn-cgi\/beacon\/expect-ct\"\n1 < Report-To: {\"endpoints\":[{\"url\":\"https:\\\/\\\/a.nel.cloudflare.com\\\/report\\\/v3?s=Cwe6lhroxrVQgDnJT0ju65E%2FnownZNifxXSZuc2crytlMwwSEVcCMXSe1XBhQxH514v2Q6Y6lVfdfuhBvdCv2CJXnkg87ELGSFVgP0CEb6VOWr8lGPA4l9nkoKc%3D\"}],\"group\":\"cf-nel\",\"max_age\":604800}\n1 < NEL: {\"success_fraction\":0,\"report_to\":\"cf-nel\",\"max_age\":604800}\n1 < Vary: Accept-Encoding\n1 < Server: cloudflare\n1 < CF-RAY: 6ec5e4227e180ff2-MRS\n1 < alt-svc: h3=\":443\"; ma=86400, h3-29=\":443\"; ma=86400\n{\"page\":2,\"per_page\":6,\"total\":12,\"total_pages\":2,\"data\":[{\"id\":7,\"name\":\"sand dollar\",\"year\":2006,\"color\":\"#DECDBE\",\"pantone_value\":\"13-1106\"},{\"id\":8,\"name\":\"chili pepper\",\"year\":2007,\"color\":\"#9B1B30\",\"pantone_value\":\"19-1557\"},{\"id\":9,\"name\":\"blue iris\",\"year\":2008,\"color\":\"#5A5B9F\",\"pantone_value\":\"18-3943\"},{\"id\":10,\"name\":\"mimosa\",\"year\":2009,\"color\":\"#F0C05A\",\"pantone_value\":\"14-0848\"},{\"id\":11,\"name\":\"turquoise\",\"year\":2010,\"color\":\"#45B5AA\",\"pantone_value\":\"15-5519\"},{\"id\":12,\"name\":\"honeysuckle\",\"year\":2011,\"color\":\"#D94F70\",\"pantone_value\":\"18-2120\"}],\"support\":{\"url\":\"https:\/\/reqres.in\/#support-heading\",\"text\":\"To keep ReqRes free, contributions towards server costs are appreciated!\"}}\n"},{"result":{"nanos":22200,"millis":0.0222,"status":"passed"},"step":{"line":44,"prefix":"Then","index":3,"text":"status 200"}},{"result":{"nanos":4763600,"millis":4.7636,"status":"passed"},"step":{"line":45,"prefix":"And","index":4,"text":"print response"},"stepLog":"17:20:40.562 [print] {\n  \"page\": 2,\n  \"per_page\": 6,\n  \"total\": 12,\n  \"total_pages\": 2,\n  \"data\": [\n    {\n      \"id\": 7,\n      \"name\": \"sand dollar\",\n      \"year\": 2006,\n      \"color\": \"#DECDBE\",\n      \"pantone_value\": \"13-1106\"\n    },\n    {\n      \"id\": 8,\n      \"name\": \"chili pepper\",\n      \"year\": 2007,\n      \"color\": \"#9B1B30\",\n      \"pantone_value\": \"19-1557\"\n    },\n    {\n      \"id\": 9,\n      \"name\": \"blue iris\",\n      \"year\": 2008,\n      \"color\": \"#5A5B9F\",\n      \"pantone_value\": \"18-3943\"\n    },\n    {\n      \"id\": 10,\n      \"name\": \"mimosa\",\n      \"year\": 2009,\n      \"color\": \"#F0C05A\",\n      \"pantone_value\": \"14-0848\"\n    },\n    {\n      \"id\": 11,\n      \"name\": \"turquoise\",\n      \"year\": 2010,\n      \"color\": \"#45B5AA\",\n      \"pantone_value\": \"15-5519\"\n    },\n    {\n      \"id\": 12,\n      \"name\": \"honeysuckle\",\n      \"year\": 2011,\n      \"color\": \"#D94F70\",\n      \"pantone_value\": \"18-2120\"\n    }\n  ],\n  \"support\": {\n    \"url\": \"https:\/\/reqres.in\/#support-heading\",\n    \"text\": \"To keep ReqRes free, contributions towards server costs are appreciated!\"\n  }\n}\n \n"},{"result":{"nanos":1176000,"millis":1.176,"status":"passed"},"step":{"line":46,"prefix":"And","index":5,"text":"print responseStatus"},"stepLog":"17:20:40.562 [print] 200 \n"},{"result":{"nanos":907100,"millis":0.9071,"status":"passed"},"step":{"line":47,"prefix":"And","index":6,"text":"print responseTime"},"stepLog":"17:20:40.562 [print] 219 \n"},{"result":{"nanos":1372400,"millis":1.3724,"status":"passed"},"step":{"line":48,"prefix":"And","index":7,"text":"print responseHeaders"},"stepLog":"17:20:40.562 [print] {\n  \"Date\": [\n    \"Tue, 15 Mar 2022 14:20:40 GMT\"\n  ],\n  \"Content-Type\": [\n    \"application\/json; charset=utf-8\"\n  ],\n  \"Transfer-Encoding\": [\n    \"chunked\"\n  ],\n  \"Connection\": [\n    \"keep-alive\"\n  ],\n  \"X-Powered-By\": [\n    \"Express\"\n  ],\n  \"Access-Control-Allow-Origin\": [\n    \"*\"\n  ],\n  \"Etag\": [\n    \"W\/\\\"2c3-xEr0SjJUDYJR0qVFNJByQ5ZcdPc\\\"\"\n  ],\n  \"Via\": [\n    \"1.1 vegur\"\n  ],\n  \"Cache-Control\": [\n    \"max-age=14400\"\n  ],\n  \"CF-Cache-Status\": [\n    \"HIT\"\n  ],\n  \"Age\": [\n    \"188\"\n  ],\n  \"Expect-CT\": [\n    \"max-age=604800, report-uri=\\\"https:\/\/report-uri.cloudflare.com\/cdn-cgi\/beacon\/expect-ct\\\"\"\n  ],\n  \"Report-To\": [\n    \"{\\\"endpoints\\\":[{\\\"url\\\":\\\"https:\\\\\/\\\\\/a.nel.cloudflare.com\\\\\/report\\\\\/v3?s=Cwe6lhroxrVQgDnJT0ju65E%2FnownZNifxXSZuc2crytlMwwSEVcCMXSe1XBhQxH514v2Q6Y6lVfdfuhBvdCv2CJXnkg87ELGSFVgP0CEb6VOWr8lGPA4l9nkoKc%3D\\\"}],\\\"group\\\":\\\"cf-nel\\\",\\\"max_age\\\":604800}\"\n  ],\n  \"NEL\": [\n    \"{\\\"success_fraction\\\":0,\\\"report_to\\\":\\\"cf-nel\\\",\\\"max_age\\\":604800}\"\n  ],\n  \"Vary\": [\n    \"Accept-Encoding\"\n  ],\n  \"Server\": [\n    \"cloudflare\"\n  ],\n  \"CF-RAY\": [\n    \"6ec5e4227e180ff2-MRS\"\n  ],\n  \"alt-svc\": [\n    \"h3=\\\":443\\\"; ma=86400, h3-29=\\\":443\\\"; ma=86400\"\n  ]\n}\n \n"},{"result":{"nanos":1975300,"millis":1.9753,"status":"passed"},"step":{"line":49,"prefix":"And","index":8,"text":"print responseCookies"},"stepLog":"17:20:40.562 [print] null \n"}],"executorName":"main","line":39,"name":"Get Demo 3","description":"","durationMillis":245.7567,"startTime":1647354040312,"failed":false,"refId":"[3:39]","endTime":1647354040562,"exampleIndex":-1},{"sectionIndex":3,"stepResults":[{"result":{"nanos":230100,"millis":0.2301,"status":"passed"},"step":{"background":true,"line":3,"prefix":"*","index":0,"text":"url 'https:\/\/reqres.in\/api'"},"stepLog":"17:20:40.577 karate.env system property was: null \n"},{"result":{"nanos":192400,"millis":0.1924,"status":"passed"},"step":{"background":true,"line":4,"prefix":"*","index":1,"text":"header Accept = 'application\/json'"}},{"result":{"nanos":123700,"millis":0.1237,"status":"passed"},"step":{"line":54,"prefix":"Given","index":0,"text":"path '\/users?page=2'"}},{"result":{"nanos":173300,"millis":0.1733,"status":"passed"},"step":{"line":55,"prefix":"And","index":1,"text":"param page = 2"}},{"result":{"nanos":183130000,"millis":183.13,"status":"passed"},"step":{"line":56,"prefix":"When","index":2,"text":"method GET"},"stepLog":"17:20:40.577 request:\n1 > GET https:\/\/reqres.in\/api\/users%3Fpage=2?page=2\n1 > Accept: application\/json\n1 > Host: reqres.in\n1 > Connection: Keep-Alive\n1 > User-Agent: Apache-HttpClient\/4.5.13 (Java\/1.8.0_202)\n1 > Accept-Encoding: gzip,deflate\n\n\n17:20:40.749 response time in milliseconds: 172\n1 < 200\n1 < Date: Tue, 15 Mar 2022 14:20:40 GMT\n1 < Content-Type: application\/json; charset=utf-8\n1 < Transfer-Encoding: chunked\n1 < Connection: keep-alive\n1 < X-Powered-By: Express\n1 < Access-Control-Allow-Origin: *\n1 < Etag: W\/\"2c3-xEr0SjJUDYJR0qVFNJByQ5ZcdPc\"\n1 < Via: 1.1 vegur\n1 < Cache-Control: max-age=14400\n1 < CF-Cache-Status: HIT\n1 < Age: 188\n1 < Expect-CT: max-age=604800, report-uri=\"https:\/\/report-uri.cloudflare.com\/cdn-cgi\/beacon\/expect-ct\"\n1 < Report-To: {\"endpoints\":[{\"url\":\"https:\\\/\\\/a.nel.cloudflare.com\\\/report\\\/v3?s=RwooUb2mGxRrwVEiHRHrU9hQuQlOhvHJExQerkB9F74KdexQWqkNJib6MIrqP5BSXrBa2o3M0PQnPp5JL%2B2uhhYYxeyL4TmQxWziU%2FFBaVxim2uvevvBExsO%2Bbs%3D\"}],\"group\":\"cf-nel\",\"max_age\":604800}\n1 < NEL: {\"success_fraction\":0,\"report_to\":\"cf-nel\",\"max_age\":604800}\n1 < Vary: Accept-Encoding\n1 < Server: cloudflare\n1 < CF-RAY: 6ec5e423ff845fb3-MRS\n1 < alt-svc: h3=\":443\"; ma=86400, h3-29=\":443\"; ma=86400\n{\"page\":2,\"per_page\":6,\"total\":12,\"total_pages\":2,\"data\":[{\"id\":7,\"name\":\"sand dollar\",\"year\":2006,\"color\":\"#DECDBE\",\"pantone_value\":\"13-1106\"},{\"id\":8,\"name\":\"chili pepper\",\"year\":2007,\"color\":\"#9B1B30\",\"pantone_value\":\"19-1557\"},{\"id\":9,\"name\":\"blue iris\",\"year\":2008,\"color\":\"#5A5B9F\",\"pantone_value\":\"18-3943\"},{\"id\":10,\"name\":\"mimosa\",\"year\":2009,\"color\":\"#F0C05A\",\"pantone_value\":\"14-0848\"},{\"id\":11,\"name\":\"turquoise\",\"year\":2010,\"color\":\"#45B5AA\",\"pantone_value\":\"15-5519\"},{\"id\":12,\"name\":\"honeysuckle\",\"year\":2011,\"color\":\"#D94F70\",\"pantone_value\":\"18-2120\"}],\"support\":{\"url\":\"https:\/\/reqres.in\/#support-heading\",\"text\":\"To keep ReqRes free, contributions towards server costs are appreciated!\"}}\n"},{"result":{"nanos":26100,"millis":0.0261,"status":"passed"},"step":{"line":57,"prefix":"Then","index":3,"text":"status 200"}},{"result":{"nanos":2055300,"millis":2.0553,"status":"passed"},"step":{"line":58,"prefix":"And","index":4,"text":"print response"},"stepLog":"17:20:40.765 [print] {\n  \"page\": 2,\n  \"per_page\": 6,\n  \"total\": 12,\n  \"total_pages\": 2,\n  \"data\": [\n    {\n      \"id\": 7,\n      \"name\": \"sand dollar\",\n      \"year\": 2006,\n      \"color\": \"#DECDBE\",\n      \"pantone_value\": \"13-1106\"\n    },\n    {\n      \"id\": 8,\n      \"name\": \"chili pepper\",\n      \"year\": 2007,\n      \"color\": \"#9B1B30\",\n      \"pantone_value\": \"19-1557\"\n    },\n    {\n      \"id\": 9,\n      \"name\": \"blue iris\",\n      \"year\": 2008,\n      \"color\": \"#5A5B9F\",\n      \"pantone_value\": \"18-3943\"\n    },\n    {\n      \"id\": 10,\n      \"name\": \"mimosa\",\n      \"year\": 2009,\n      \"color\": \"#F0C05A\",\n      \"pantone_value\": \"14-0848\"\n    },\n    {\n      \"id\": 11,\n      \"name\": \"turquoise\",\n      \"year\": 2010,\n      \"color\": \"#45B5AA\",\n      \"pantone_value\": \"15-5519\"\n    },\n    {\n      \"id\": 12,\n      \"name\": \"honeysuckle\",\n      \"year\": 2011,\n      \"color\": \"#D94F70\",\n      \"pantone_value\": \"18-2120\"\n    }\n  ],\n  \"support\": {\n    \"url\": \"https:\/\/reqres.in\/#support-heading\",\n    \"text\": \"To keep ReqRes free, contributions towards server costs are appreciated!\"\n  }\n}\n \n"},{"result":{"nanos":49582400,"millis":49.5824,"status":"passed"},"step":{"line":59,"prefix":"And","index":5,"text":"match response.data[0].name != null"}},{"result":{"nanos":843300,"millis":0.8433,"status":"passed"},"step":{"line":60,"prefix":"And","index":6,"text":"assert response.data.length == 6"}},{"result":{"nanos":765200,"millis":0.7652,"status":"passed"},"step":{"line":61,"prefix":"And","index":7,"text":"match $.data[1].id == 8"}},{"result":{"nanos":474500,"millis":0.4745,"status":"passed"},"step":{"line":62,"prefix":"And","index":8,"text":"match $.data[3].pantone_value == '14-0848'"}}],"executorName":"main","line":52,"name":"Get Demo 4","description":"","durationMillis":237.5963,"startTime":1647354040577,"failed":false,"refId":"[4:52]","endTime":1647354040812,"exampleIndex":-1}],"callDepth":0,"name":"Get API Demo","description":"","resultDate":"2022-03-15 05:20:40 PM","durationMillis":889.4911,"passedCount":4}